%%% Single-product product data file format 12.0.A
xxcus 20003
END_OF_PRODUCT_ABBREVIATIONS   -999
20003 xxcus  XXCUS APP
No No No No
Yes Yes
20003 XXCUS XXCUS
0
1.0.0 1.0.0
none
none
none
none
END_OF_PRODUCTS
Release 12.0.0
12.0.0
R120 R120_ additional-this-mpl
XXCUS 12.0.0
END_OF_RELEASE  0.0.0