SAME AS ICC|Attribute Label 1|Attribute Value|Attribute UOM|Attribute Data Type|WCS Publish|MultiRow|0
Abrasive Flap Discs|Abrasive Material|||String|Yes|No|0
Abrasive Sanding Belts|Abrasive Material|||String|Yes|No|0
Abrasive Sanding Discs|Abrasive Material|||String|Yes|No|0
Abrasive Sanding Sheets|Abrasive Material|||String|Yes|No|0
Cup Wheels|Abrasive Material|||String|Yes|No|0
Cut-off Wheels|Abrasive Material|||String|Yes|No|0
Grinding Wheels|Abrasive Material|||String|Yes|No|0
Auto Levels|Accuracy|||String|Yes|No|0
Concrete Test Equipment|Accuracy|||String|Yes|No|0
Point/Line Lasers|Accuracy|||String|Yes|No|0
Stud Finders|Accuracy|||String|Yes|No|0
Testing & Measurement Tools|Accuracy|||String|Yes|No|0
Tapes|Adhesive Material|||String|Yes|No|0
Heat Guns|Air Consumption||cfm|Numeric|Yes|No|0
Finish Nailers|Air Inlet|||String|Yes|No|0
Framing Nailers|Air Inlet|||String|Yes|No|0
Air Compressors|Amperage Rating||A|Numeric|Yes|No|0
Band Saws|Amperage Rating||A|Numeric|Yes|No|0
Chop Saws|Amperage Rating||A|Numeric|Yes|No|0
Circular|Amperage Rating||A|Numeric|Yes|No|0
Circular Saw Blades|Amperage Rating||A|Numeric|Yes|No|0
Combo Kit|Amperage Rating||A|Numeric|Yes|No|0
Core Drills & Stands|Amperage Rating||A|Numeric|Yes|No|0
Cutoff Saws|Amperage Rating||A|Numeric|Yes|No|0
Demo Hammers|Amperage Rating||A|Numeric|Yes|No|0
Die Grinders|Amperage Rating||A|Numeric|Yes|No|0
Disc Grinders/Sanders|Amperage Rating||A|Numeric|Yes|No|0
Drill Drivers/Hammer Drills|Amperage Rating||A|Numeric|Yes|No|0
Generator Accessories|Amperage Rating||A|Numeric|Yes|No|0
Generators|Amperage Rating||A|Numeric|Yes|No|0
Heat Guns|Amperage Rating||A|Numeric|Yes|No|0
Impacts|Amperage Rating||A|Numeric|Yes|No|0
Jig|Amperage Rating||A|Numeric|Yes|No|0
Job Site Radios & Accessories|Amperage Rating||A|Numeric|Yes|No|0
Miter|Amperage Rating||A|Numeric|Yes|No|0
Nibblers & Shears|Amperage Rating||A|Numeric|Yes|No|0
Oscillating|Amperage Rating||A|Numeric|Yes|No|0
Reciprocating|Amperage Rating||A|Numeric|Yes|No|0
Rotary Hammers|Amperage Rating||A|Numeric|Yes|No|0
Router & Rotary Tools|Amperage Rating||A|Numeric|Yes|No|0
Saw Accessories|Amperage Rating||A|Numeric|Yes|No|0
Submersible/Utility/Sump Pumps|Amperage Rating||A|Numeric|Yes|No|0
Table|Amperage Rating||A|Numeric|Yes|No|0
Testing & Measurement Tools|Amperage Rating||A|Numeric|Yes|No|0
Tile/Brick/Block saws|Amperage Rating||A|Numeric|Yes|No|0
Wet/Dry|Amperage Rating||A|Numeric|Yes|No|0
Cordless Tool Batteries/Chargers|Ampere Hour Capacity||Ah|Numeric|Yes|No|0
Impacts|Anvil Type|||String|Yes|No|0
General Purpose Adhesive|Appearance|||String|Yes|No|0
General Purpose Cleaner|Appearance|||String|Yes|No|0
Abrasive Flap Discs|Arbor Size||in|Numeric|Yes|No|0
Abrasive Sanding Belts|Arbor Size||in|Numeric|Yes|No|0
Abrasive Sanding Discs|Arbor Size||in|Numeric|Yes|No|0
Abrasive Sanding Sheets|Arbor Size||in|Numeric|Yes|No|0
Chop Saws|Arbor Size||in|Numeric|Yes|No|0
Circular|Arbor Size||in|Numeric|Yes|No|0
Circular Saw Blades|Arbor Size||in|Numeric|Yes|No|0
Cup Wheels|Arbor Size||in|Numeric|Yes|No|0
Cutoff Saws|Arbor Size||in|Numeric|Yes|No|0
Cut-off Wheels|Arbor Size||in|Numeric|Yes|No|0
Damond Blades|Arbor Size||in|Numeric|Yes|No|0
Die Grinders|Arbor Size||in|Numeric|Yes|No|0
Disc Grinders/Sanders|Arbor Size||in|Numeric|Yes|No|0
Flat Saws|Arbor Size||in|Numeric|Yes|No|0
Grinding Wheels|Arbor Size||in|Numeric|Yes|No|0
Hole Saws & Arbors|Arbor Size||in|Numeric|Yes|No|0
Miter|Arbor Size||in|Numeric|Yes|No|0
Saw Accessories|Arbor Size||in|Numeric|Yes|No|0
Table|Arbor Size||in|Numeric|Yes|No|0
Tile/Brick/Block saws|Arbor Size||in|Numeric|Yes|No|0
Wire Wheels & Brushes|Arbor Size||in|Numeric|Yes|No|0
Connecting Devices|Attachment Type|||String|Yes|No|0
Lanyards & Ropes|Attachment Type|||String|Yes|No|0
Auto Levels|Auto Leveling Range|||String|Yes|No|0
Point/Line Lasers|Auto Leveling Range|||String|Yes|No|0
Flashlights|Average Life Hour|||String|Yes|No|0
Abrasive Flap Discs|Backing Material|||String|Yes|No|0
Abrasive Sanding Belts|Backing Material|||String|Yes|No|0
Abrasive Sanding Discs|Backing Material|||String|Yes|No|0
Abrasive Sanding Sheets|Backing Material|||String|Yes|No|0
Tapes|Backing Material|||String|Yes|No|0
Door Hanging Templates|Barrel Length||in|Numeric|Yes|No|0
Router Bushings & Guides|Barrel Length||in|Numeric|Yes|No|0
Fire Barrier Caulking|Base Chemistry|||String|Yes|No|0
Fire Stop Silicones|Base Chemistry|||String|Yes|No|0
Combination Ladders|Base Spread||in|Numeric|Yes|No|0
Extension Ladders|Base Spread||in|Numeric|Yes|No|0
Step Ladders|Base Spread||in|Numeric|Yes|No|0
Flashlights|Battery Burn Time||hr|Numeric|Yes|No|0
Combo Kit|Battery Capacity||Ah|Numeric|Yes|No|0
Drill Drivers/Hammer Drills|Battery Capacity||Ah|Numeric|Yes|No|0
Job Site Radios & Accessories|Battery Capacity||Ah|Numeric|Yes|No|0
Oscillating|Battery Capacity||Ah|Numeric|Yes|No|0
Pipe and Tubing Cutter|Battery Capacity||Ah|Numeric|Yes|No|0
Reciprocating|Battery Capacity||Ah|Numeric|Yes|No|0
Rotary Hammers|Battery Capacity||Ah|Numeric|Yes|No|0
Security Systems|Battery Capacity||Ah|Numeric|Yes|No|0
Cordless Tool Batteries/Chargers|Battery Recharge Time||hr|Numeric|Yes|No|0
Job Site Radios & Accessories|Battery Recharge Time||hr|Numeric|Yes|No|0
Flashlights|Battery Size|||String|Yes|No|0
Combo Kit|Battery Type|||String|Yes|No|0
Concrete Test Equipment|Battery Type|||String|Yes|No|0
Cordless Tool Batteries/Chargers|Battery Type|||String|Yes|No|0
Drill Drivers/Hammer Drills|Battery Type|||String|Yes|No|0
Flashlights|Battery Type|||String|Yes|No|0
Impacts|Battery Type|||String|Yes|No|0
Job Site Radios & Accessories|Battery Type|||String|Yes|No|0
Oscillating|Battery Type|||String|Yes|No|0
Pipe and Tubing Cutter|Battery Type|||String|Yes|No|0
Point/Line Lasers|Battery Type|||String|Yes|No|0
Reciprocating|Battery Type|||String|Yes|No|0
Rotary Hammers|Battery Type|||String|Yes|No|0
Security Systems|Battery Type|||String|Yes|No|0
Stud Finders|Battery Type|||String|Yes|No|0
Testing & Measurement Tools|Battery Type|||String|Yes|No|0
Cordless Tool Batteries/Chargers|Battery Voltage||V|Numeric|Yes|No|0
Flashlights|Battery Voltage||V|Numeric|Yes|No|0
Auto Levels|Beam Color|||String|Yes|No|0
Point/Line Lasers|Beam Color|||String|Yes|No|0
Flashlights|Beam Distance|||String|Yes|No|0
Chop Saws|Bearing Type|||String|Yes|No|0
Cutoff Saws|Bearing Type|||String|Yes|No|0
Flat Saws|Bearing Type|||String|Yes|No|0
Router & Rotary Tools|Bearing Type|||String|Yes|No|0
Submersible/Utility/Sump Pumps|Bearing Type|||String|Yes|No|0
Tile/Brick/Block saws|Bearing Type|||String|Yes|No|0
Disc Grinders/Sanders|Belt Size||in|String|Yes|No|0
Circular|Bevel Adjustment||deg|Numeric|Yes|No|0
Saw Accessories|Bevel Adjustment||deg|Numeric|Yes|No|0
Band Saws|Bevel Angle||deg|Numeric|Yes|No|0
Jig|Bevel Angle||deg|Numeric|Yes|No|0
Miter|Bevel Capacity||deg|Numeric|Yes|No|0
Insert Bits|Bit Size|||String|Yes|No|0
Power Bits|Bit Size|||String|Yes|No|0
Sets|Bit Size|||String|Yes|No|0
Insert Bits|Bit Type|||String|Yes|No|0
Power Bits|Bit Type|||String|Yes|No|0
Power Drywall Cutters|Bit Type|||String|Yes|No|0
Sets|Bit Type|||String|Yes|No|0
Knives|Blade Change|||String|Yes|No|0
Chop Saws|Blade Diameter||in|Numeric|Yes|No|0
Circular|Blade Diameter||in|Numeric|Yes|No|0
Cutoff Saws|Blade Diameter||in|Numeric|Yes|No|0
Flat Saws|Blade Diameter||in|Numeric|Yes|No|0
Nut Drivers|Blade Diameter||in|Numeric|Yes|No|0
Saw Accessories|Blade Diameter||in|Numeric|Yes|No|0
Tile/Brick/Block saws|Blade Diameter||in|Numeric|Yes|No|0
Tape Measures|Blade Finish|||String|Yes|No|0
Tape Measures|Blade Graduation Style|||String|Yes|No|0
Chisels/Punches|Blade Length||in|Numeric|Yes|No|0
Floor Scrappers & Blades|Blade Length||in|Numeric|Yes|No|0
Hack Saws|Blade Length||in|Numeric|Yes|No|0
Nut Drivers|Blade Length||in|Numeric|Yes|No|0
PVC Cutters|Blade Length||in|Numeric|Yes|No|0
Rotary Hammer Steel|Blade Length||in|Numeric|Yes|No|0
Wood Saws|Blade Length||in|Numeric|Yes|No|0
Fastening Tool Accessories|Blade Material|||String|Yes|No|0
Floor Scrappers & Blades|Blade Material|||String|Yes|No|0
Hack Saws|Blade Material|||String|Yes|No|0
Knives|Blade Material|||String|Yes|No|0
Nut Drivers|Blade Material|||String|Yes|No|0
PVC Cutters|Blade Material|||String|Yes|No|0
Rotary Hammer Steel|Blade Material|||String|Yes|No|0
Tape Measures|Blade Material|||String|Yes|No|0
Wood Saws|Blade Material|||String|Yes|No|0
Circular|Blade Side|||String|Yes|No|0
Saw Accessories|Blade Side|||String|Yes|No|0
Band Saws|Blade Size||in|Numeric|Yes|No|0
Circular Saw Blades|Blade Size||in|Numeric|Yes|No|0
Knives|Blade Size||in|Numeric|Yes|No|0
Miter|Blade Size||in|Numeric|Yes|No|0
Reciprocating|Blade Size||in|Numeric|Yes|No|0
Table|Blade Size||in|Numeric|Yes|No|0
Circular Saw Blades|Blade Speed||rpm|Numeric|Yes|No|0
Jig|Blade System|||String|Yes|No|0
Band Saws|Blade Type|||String|Yes|No|0
Jig|Blade Type|||String|Yes|No|0
Knives|Blade Type|||String|Yes|No|0
Reciprocating|Blade Type|||String|Yes|No|0
Chisels/Punches|Blade Width||in|Numeric|Yes|No|0
Floor Scrappers & Blades|Blade Width||in|Numeric|Yes|No|0
Rotary Hammer Steel|Blade Width||in|Numeric|Yes|No|0
Demo Hammers|Blows per Minute||bpm|Numeric|Yes|No|0
Flashlights|Body Color|||String|Yes|No|0
Flashlights|Body Material|||String|Yes|No|0
Power Tools Repair Parts|Body Material|||String|Yes|No|0
PVC Cutters|Body Material|||String|Yes|No|0
Roofer Kits|Body Material|||String|Yes|No|0
Vacuum/Blower/Ventilator Accessories|Body Material|||String|Yes|No|0
Combination Ladders|Bottom Width||in|Numeric|Yes|No|0
Extension Ladders|Bottom Width||in|Numeric|Yes|No|0
Step Ladders|Bottom Width||in|Numeric|Yes|No|0
Roofer Kits|Braking System|||String|Yes|No|0
Abrasive Flap Discs|Brand Name|||String|Yes|No|0
Abrasive Sanding Belts|Brand Name|||String|Yes|No|0
Abrasive Sanding Discs|Brand Name|||String|Yes|No|0
Abrasive Sanding Sheets|Brand Name|||String|Yes|No|0
Adjustable Wrenches|Brand Name|||String|Yes|No|0
Air Compressors|Brand Name|||String|Yes|No|0
Auto Levels|Brand Name|||String|Yes|No|0
Band Saw Blades|Brand Name|||String|Yes|No|0
Band Saws|Brand Name|||String|Yes|No|0
Cameras & Films|Brand Name|||String|Yes|No|0
Chisels/Punches|Brand Name|||String|Yes|No|0
Chop Saws|Brand Name|||String|Yes|No|0
Circular|Brand Name|||String|Yes|No|0
Circular Saw Blades|Brand Name|||String|Yes|No|0
Collated Nails|Brand Name|||String|Yes|No|0
Combination Ladders|Brand Name|||String|Yes|No|0
Combo Kit|Brand Name|||String|Yes|No|0
Compressor Oil|Brand Name|||String|Yes|No|0
Concrete Test Equipment|Brand Name|||String|Yes|No|0
Connecting Devices|Brand Name|||String|Yes|No|0
Cordless Tool Batteries/Chargers|Brand Name|||String|Yes|No|0
Core Bits & Accessories|Brand Name|||String|Yes|No|0
Core Drills & Stands|Brand Name|||String|Yes|No|0
Cup Wheels|Brand Name|||String|Yes|No|0
Cutoff Saws|Brand Name|||String|Yes|No|0
Cut-off Wheels|Brand Name|||String|Yes|No|0
Damond Blades|Brand Name|||String|Yes|No|0
Demo Hammers|Brand Name|||String|Yes|No|0
Die Grinders|Brand Name|||String|Yes|No|0
Disc Grinders/Sanders|Brand Name|||String|Yes|No|0
Door Hanging Templates|Brand Name|||String|Yes|No|0
Drill Chuck & Chuck adaptors|Brand Name|||String|Yes|No|0
Drill Drivers/Hammer Drills|Brand Name|||String|Yes|No|0
Drill Extensions|Brand Name|||String|Yes|No|0
Drill Sets|Brand Name|||String|Yes|No|0
Extension Ladders|Brand Name|||String|Yes|No|0
Fastening Tool Accessories|Brand Name|||String|Yes|No|0
Filters/Cartridges|Brand Name|||String|Yes|No|0
Finish Nailers|Brand Name|||String|Yes|No|0
Fire Barrier Caulking|Brand Name|||String|Yes|No|0
Fire Stop Duct Wrap|Brand Name|||String|Yes|No|0
Fire Stop Silicones|Brand Name|||String|Yes|No|0
Flashlights|Brand Name|||String|Yes|No|0
Flat Saws|Brand Name|||String|Yes|No|0
Floor Scrappers & Blades|Brand Name|||String|Yes|No|0
Framing Nailers|Brand Name|||String|Yes|No|0
General Purpose Adhesive|Brand Name|||String|Yes|No|0
General Purpose Cleaner|Brand Name|||String|Yes|No|0
Generator Accessories|Brand Name|||String|Yes|No|0
Generators|Brand Name|||String|Yes|No|0
Glass/Tile Bits|Brand Name|||String|Yes|No|0
Glasses|Brand Name|||String|Yes|No|0
Grinder Guards/Mounting parts|Brand Name|||String|Yes|No|0
Grinding Wheels|Brand Name|||String|Yes|No|0
Hack Saws|Brand Name|||String|Yes|No|0
Hammer Handles|Brand Name|||String|Yes|No|0
Hammers/Pullers|Brand Name|||String|Yes|No|0
Hand Tool boxes|Brand Name|||String|Yes|No|0
Heat Guns|Brand Name|||String|Yes|No|0
Hex Keys/Torx|Brand Name|||String|Yes|No|0
Hole Saws & Arbors|Brand Name|||String|Yes|No|0
Impact Sockets and Adapters|Brand Name|||String|Yes|No|0
Impacts|Brand Name|||String|Yes|No|0
Insert Bits|Brand Name|||String|Yes|No|0
Jig|Brand Name|||String|Yes|No|0
Jig Saw Blades|Brand Name|||String|Yes|No|0
Job Site Radios & Accessories|Brand Name|||String|Yes|No|0
Jobsite|Brand Name|||String|Yes|No|0
Knives|Brand Name|||String|Yes|No|0
Ladder Accessories|Brand Name|||String|Yes|No|0
Ladder/Lumber/Roof Racks|Brand Name|||String|Yes|No|0
Lanyards & Ropes|Brand Name|||String|Yes|No|0
Masonry Bits|Brand Name|||String|Yes|No|0
Miter|Brand Name|||String|Yes|No|0
Muffs|Brand Name|||String|Yes|No|0
Nibblers & Shears|Brand Name|||String|Yes|No|0
Nut Drivers|Brand Name|||String|Yes|No|0
Nutsetters|Brand Name|||String|Yes|No|0
Oscillating|Brand Name|||String|Yes|No|0
Pipe and Tubing Cutter|Brand Name|||String|Yes|No|0
Pipe Devices & Collars|Brand Name|||String|Yes|No|0
Pliers|Brand Name|||String|Yes|No|0
Plugs|Brand Name|||String|Yes|No|0
Plumb Bobs|Brand Name|||String|Yes|No|0
Point/Line Lasers|Brand Name|||String|Yes|No|0
Power Bits|Brand Name|||String|Yes|No|0
Power Drywall Cutters|Brand Name|||String|Yes|No|0
Power Tools Repair Parts|Brand Name|||String|Yes|No|0
Pump Jacks|Brand Name|||String|Yes|No|0
PVC Cutters|Brand Name|||String|Yes|No|0
Reciprocating|Brand Name|||String|Yes|No|0
Reciprocating Saw Blades|Brand Name|||String|Yes|No|0
Rescue Systems|Brand Name|||String|Yes|No|0
Respirators|Brand Name|||String|Yes|No|0
Roofer Kits|Brand Name|||String|Yes|No|0
Rotary Hammer Bits|Brand Name|||String|Yes|No|0
Rotary Hammer Steel|Brand Name|||String|Yes|No|0
Rotary Hammers|Brand Name|||String|Yes|No|0
Router & Rotary Tools|Brand Name|||String|Yes|No|0
Router Bits|Brand Name|||String|Yes|No|0
Router Bushings & Guides|Brand Name|||String|Yes|No|0
Saw Accessories|Brand Name|||String|Yes|No|0
Screw Guides & Bit Holders|Brand Name|||String|Yes|No|0
Security Systems|Brand Name|||String|Yes|No|0
Sets|Brand Name|||String|Yes|No|0
Sheet Metal|Brand Name|||String|Yes|No|0
Step Ladders|Brand Name|||String|Yes|No|0
Stud Finders|Brand Name|||String|Yes|No|0
Submersible/Utility/Sump Pumps|Brand Name|||String|Yes|No|0
Table|Brand Name|||String|Yes|No|0
Tape Measures|Brand Name|||String|Yes|No|0
Tapes|Brand Name|||String|Yes|No|0
Testing & Measurement Tools|Brand Name|||String|Yes|No|0
Tile/Brick/Block saws|Brand Name|||String|Yes|No|0
Tool & Bucket Bags|Brand Name|||String|Yes|No|0
Transfer Tanks & Pumps|Brand Name|||String|Yes|No|0
Trash & Centrifugal Pumps|Brand Name|||String|Yes|No|0
Tripods|Brand Name|||String|Yes|No|0
Truck Boxes|Brand Name|||String|Yes|No|0
Vacuum/Blower/Ventilator Accessories|Brand Name|||String|Yes|No|0
Van Organizers|Brand Name|||String|Yes|No|0
Wet/Dry|Brand Name|||String|Yes|No|0
Wheel Measures|Brand Name|||String|Yes|No|0
Wire Wheels & Brushes|Brand Name|||String|Yes|No|0
Wood Augers|Brand Name|||String|Yes|No|0
Wood Brad Point & Multi-Spur Bits|Brand Name|||String|Yes|No|0
Wood Saws|Brand Name|||String|Yes|No|0
Wrecking Bars/Pullers|Brand Name|||String|Yes|No|0
Tapes|Breaking Strength||lb|Numeric|Yes|No|0
Connecting Devices|Buckle Type|||String|Yes|No|0
Roofer Kits|Cable Diameter||in|Numeric|Yes|No|0
Roofer Kits|Cable Material|||String|Yes|No|0
Connecting Devices|Cable Size||in|Numeric|Yes|No|0
Cameras & Films|Camera Diameter||mm|Numeric|Yes|No|0
Cameras & Films|Camera Type|||String|Yes|No|0
Testing & Measurement Tools|Capacitance Range||uF|String|Yes|No|0
Chop Saws|Capacity||gal|Numeric|Yes|No|0
Connecting Devices|Capacity||gal|Numeric|Yes|No|0
Hand Tool boxes|Capacity||gal|Numeric|Yes|No|0
Jobsite|Capacity||gal|Numeric|Yes|No|0
Lanyards & Ropes|Capacity||gal|Numeric|Yes|No|0
Nibblers & Shears|Capacity||gal|Numeric|Yes|No|0
Nutsetters|Capacity||gal|Numeric|Yes|No|0
Screw Guides & Bit Holders|Capacity||gal|Numeric|Yes|No|0
Tool & Bucket Bags|Capacity||gal|Numeric|Yes|No|0
Transfer Tanks & Pumps|Capacity||gal|Numeric|Yes|No|0
Truck Boxes|Capacity||gal|Numeric|Yes|No|0
Van Organizers|Capacity||gal|Numeric|Yes|No|0
Tape Measures|Case Material|||String|Yes|No|0
Cordless Tool Batteries/Chargers|Casing Material|||String|Yes|No|0
Trash & Centrifugal Pumps|Casing Material|||String|Yes|No|0
Jobsite|Caster Size||in|String|Yes|No|0
Oscillating|Charge Time|||String|Yes|No|0
Cordless Tool Batteries/Chargers|Chemical System|||String|Yes|No|0
Drill Chuck & Chuck adaptors|Chuck Capacity||in|Numeric|Yes|No|0
Drill Drivers/Hammer Drills|Chuck Size||in|Numeric|Yes|No|0
Rotary Hammers|Chuck Size||in|Numeric|Yes|No|0
Miter|Closed Depth||in|Numeric|Yes|No|0
Saw Accessories|Closed Depth||in|Numeric|Yes|No|0
Combination Ladders|Closed Height||in|Numeric|Yes|No|0
Miter|Closed Length||in|Numeric|Yes|No|0
Saw Accessories|Closed Length||in|Numeric|Yes|No|0
Combination Ladders|Closed Width||in|Numeric|Yes|No|0
Miter|Closed Width||in|Numeric|Yes|No|0
Saw Accessories|Closed Width||in|Numeric|Yes|No|0
Wheel Measures|Collapsed Dimension||in|Numeric|Yes|No|0
Rotary Hammer Steel|Collar Type|||String|Yes|No|0
Router & Rotary Tools|Collet Capacity||in|Numeric|Yes|No|0
Abrasive Sanding Belts|Color|||String|Yes|No|0
Abrasive Sanding Discs|Color|||String|Yes|No|0
Abrasive Sanding Sheets|Color|||String|Yes|No|0
Connecting Devices|Color|||String|Yes|No|0
Cordless Tool Batteries/Chargers|Color|||String|Yes|No|0
Cup Wheels|Color|||String|Yes|No|0
Cut-off Wheels|Color|||String|Yes|No|0
Filters/Cartridges|Color|||String|Yes|No|0
Fire Barrier Caulking|Color|||String|Yes|No|0
Fire Stop Duct Wrap|Color|||String|Yes|No|0
Fire Stop Silicones|Color|||String|Yes|No|0
Flashlights|Color|||String|Yes|No|0
Floor Scrappers & Blades|Color|||String|Yes|No|0
General Purpose Adhesive|Color|||String|Yes|No|0
General Purpose Cleaner|Color|||String|Yes|No|0
Grinding Wheels|Color|||String|Yes|No|0
Hammers/Pullers|Color|||String|Yes|No|0
Hand Tool boxes|Color|||String|Yes|No|0
Jobsite|Color|||String|Yes|No|0
Knives|Color|||String|Yes|No|0
Ladder Accessories|Color|||String|Yes|No|0
Lanyards & Ropes|Color|||String|Yes|No|0
Muffs|Color|||String|Yes|No|0
Pipe Devices & Collars|Color|||String|Yes|No|0
Pliers|Color|||String|Yes|No|0
Rescue Systems|Color|||String|Yes|No|0
Respirators|Color|||String|Yes|No|0
Roofer Kits|Color|||String|Yes|No|0
Rotary Hammer Steel|Color|||String|Yes|No|0
Step Ladders|Color|||String|Yes|No|0
Tape Measures|Color|||String|Yes|No|0
Tool & Bucket Bags|Color|||String|Yes|No|0
Transfer Tanks & Pumps|Color|||String|Yes|No|0
Tripods|Color|||String|Yes|No|0
Truck Boxes|Color|||String|Yes|No|0
Van Organizers|Color|||String|Yes|No|0
Wheel Measures|Color|||String|Yes|No|0
Wrecking Bars/Pullers|Color|||String|Yes|No|0
Compressor Oil|Composition|||String|Yes|No|0
General Purpose Adhesive|Composition|||String|Yes|No|0
General Purpose Cleaner|Composition|||String|Yes|No|0
Trash & Centrifugal Pumps|Compression Ratio|||String|Yes|No|0
Core Drills & Stands|Concrete Capacity||in|Numeric|Yes|No|0
Generator Accessories|Connection|||String|Yes|No|0
Generators|Connection|||String|Yes|No|0
Jobsite|Connection|||String|Yes|No|0
Security Systems|Connection Location|||String|Yes|No|0
Power Tools Repair Parts|Connection Size|||String|Yes|No|0
Vacuum/Blower/Ventilator Accessories|Connection Size|||String|Yes|No|0
Demo Hammers|Connection Type|||String|Yes|No|0
Generator Accessories|Connection Type|||String|Yes|No|0
Power Tools Repair Parts|Connection Type|||String|Yes|No|0
Respirators|Connection Type|||String|Yes|No|0
Vacuum/Blower/Ventilator Accessories|Connection Type|||String|Yes|No|0
Compressor Oil|Container Size||gal|Numeric|Yes|No|0
Fire Barrier Caulking|Container Size||gal|Numeric|Yes|No|0
Fire Stop Silicones|Container Size||gal|Numeric|Yes|No|0
General Purpose Adhesive|Container Size||gal|Numeric|Yes|No|0
General Purpose Cleaner|Container Size||gal|Numeric|Yes|No|0
Compressor Oil|Container Type|||String|Yes|No|0
Fire Barrier Caulking|Container Type|||String|Yes|No|0
Fire Stop Silicones|Container Type|||String|Yes|No|0
General Purpose Adhesive|Container Type|||String|Yes|No|0
General Purpose Cleaner|Container Type|||String|Yes|No|0
Testing & Measurement Tools|Continuity|||String|Yes|No|0
Die Grinders|Cord|||String|Yes|No|0
Disc Grinders/Sanders|Cord|||String|Yes|No|0
Drill Drivers/Hammer Drills|Cord|||String|Yes|No|0
Nibblers & Shears|Cord|||String|Yes|No|0
Rotary Hammers|Cord|||String|Yes|No|0
Submersible/Utility/Sump Pumps|Cord Length||ft|Numeric|Yes|No|0
Lanyards & Ropes|Cord Material|||String|Yes|No|0
Plugs|Cord Style|||String|Yes|No|0
Heat Guns|Cord Type|||String|Yes|No|0
Impacts|Cord Type|||String|Yes|No|0
Wheel Measures|Counter Type|||String|Yes|No|0
Miter|Crosscut|||String|Yes|No|0
Hammers/Pullers|Crown Width|||String|Yes|No|0
Fire Barrier Caulking|Curing Time||hr|Numeric|Yes|No|0
Fire Stop Silicones|Curing Time||hr|Numeric|Yes|No|0
Sheet Metal|Curve Type|||String|Yes|No|0
Band Saws|Cutting Action|||String|Yes|No|0
Jig|Cutting Action|||String|Yes|No|0
Reciprocating|Cutting Action|||String|Yes|No|0
Sheet Metal|Cutting Action|||String|Yes|No|0
Chop Saws|Cutting Capacity|||String|Yes|No|0
Circular|Cutting Capacity|||String|Yes|No|0
Circular Saw Blades|Cutting Capacity|||String|Yes|No|0
Cutoff Saws|Cutting Capacity|||String|Yes|No|0
Pipe and Tubing Cutter|Cutting Capacity|||String|Yes|No|0
PVC Cutters|Cutting Capacity|||String|Yes|No|0
Saw Accessories|Cutting Capacity|||String|Yes|No|0
Table|Cutting Capacity|||String|Yes|No|0
Power Drywall Cutters|Cutting Depth||in|Numeric|Yes|No|0
PVC Cutters|Cutting Depth||in|Numeric|Yes|No|0
Wood Brad Point & Multi-Spur Bits|Cutting Diameter||in|Numeric|Yes|No|0
Jig Saw Blades|Cutting Length||in|Numeric|Yes|No|0
Router Bits|Cutting Length||in|Numeric|Yes|No|0
Sheet Metal|Cutting Length||in|Numeric|Yes|No|0
Nibblers & Shears|Cutting Radius||in|Numeric|Yes|No|0
Air Compressors|Cylinder Type|||String|Yes|No|0
Hand Tool boxes|Depth||in|Numeric|Yes|No|0
Jobsite|Depth||in|Numeric|Yes|No|0
Tool & Bucket Bags|Depth||in|Numeric|Yes|No|0
Truck Boxes|Depth||in|Numeric|Yes|No|0
Van Organizers|Depth||in|Numeric|Yes|No|0
Core Bits & Accessories|Depth of Cut||in|Numeric|Yes|No|0
Cup Wheels|Depth of Cut||in|Numeric|Yes|No|0
Cutoff Saws|Depth of Cut||in|Numeric|Yes|No|0
Damond Blades|Depth of Cut||in|Numeric|Yes|No|0
Flat Saws|Depth of Cut||in|Numeric|Yes|No|0
Glass/Tile Bits|Depth of Cut||in|Numeric|Yes|No|0
Hole Saws & Arbors|Depth of Cut||in|Numeric|Yes|No|0
Masonry Bits|Depth of Cut||in|Numeric|Yes|No|0
Rotary Hammer Bits|Depth of Cut||in|Numeric|Yes|No|0
Table|Depth of Cut||in|Numeric|Yes|No|0
Tile/Brick/Block saws|Depth of Cut||in|Numeric|Yes|No|0
Wood Brad Point & Multi-Spur Bits|Depth of Cut||in|Numeric|Yes|No|0
Tile/Brick/Block saws|Diagonal Cut Size||in|Numeric|Yes|No|0
Abrasive Flap Discs|Diameter||in|Numeric|Yes|No|0
Abrasive Sanding Belts|Diameter||in|Numeric|Yes|No|0
Abrasive Sanding Discs|Diameter||in|Numeric|Yes|No|0
Abrasive Sanding Sheets|Diameter||in|Numeric|Yes|No|0
Circular Saw Blades|Diameter||in|Numeric|Yes|No|0
Collated Nails|Diameter||in|Numeric|Yes|No|0
Core Bits & Accessories|Diameter||in|Numeric|Yes|No|0
Core Drills & Stands|Diameter||in|Numeric|Yes|No|0
Cup Wheels|Diameter||in|Numeric|Yes|No|0
Cut-off Wheels|Diameter||in|Numeric|Yes|No|0
Damond Blades|Diameter||in|Numeric|Yes|No|0
Drill Extensions|Diameter||in|Numeric|Yes|No|0
Glass/Tile Bits|Diameter||in|Numeric|Yes|No|0
Grinding Wheels|Diameter||in|Numeric|Yes|No|0
Masonry Bits|Diameter||in|Numeric|Yes|No|0
Pipe Devices & Collars|Diameter||in|Numeric|Yes|No|0
Power Drywall Cutters|Diameter||in|Numeric|Yes|No|0
Rotary Hammer Bits|Diameter||in|Numeric|Yes|No|0
Router Bits|Diameter||in|Numeric|Yes|No|0
Submersible/Utility/Sump Pumps|Diameter||in|Numeric|Yes|No|0
Wire Wheels & Brushes|Diameter||in|Numeric|Yes|No|0
Wood Augers|Diameter||in|Numeric|Yes|No|0
Wrecking Bars/Pullers|Diameter||in|Numeric|Yes|No|0
Tapes|Dielectric Strength||lb|Numeric|Yes|No|0
Air Compressors|Dimensions|||String|Yes|No|0
Cameras & Films|Dimensions|||String|Yes|No|0
Chop Saws|Dimensions|||String|Yes|No|0
Cordless Tool Batteries/Chargers|Dimensions|||String|Yes|No|0
Cutoff Saws|Dimensions|||String|Yes|No|0
Demo Hammers|Dimensions|||String|Yes|No|0
Finish Nailers|Dimensions|||String|Yes|No|0
Flat Saws|Dimensions|||String|Yes|No|0
Framing Nailers|Dimensions|||String|Yes|No|0
Generator Accessories|Dimensions|||String|Yes|No|0
Generators|Dimensions|||String|Yes|No|0
Impacts|Dimensions|||String|Yes|No|0
Job Site Radios & Accessories|Dimensions|||String|Yes|No|0
Miter|Dimensions|||String|Yes|No|0
Pipe and Tubing Cutter|Dimensions|||String|Yes|No|0
Point/Line Lasers|Dimensions|||String|Yes|No|0
Power Tools Repair Parts|Dimensions|||String|Yes|No|0
Pump Jacks|Dimensions|||String|Yes|No|0
Table|Dimensions|||String|Yes|No|0
Testing & Measurement Tools|Dimensions|||String|Yes|No|0
Vacuum/Blower/Ventilator Accessories|Dimensions|||String|Yes|No|0
Wet/Dry|Dimensions|||String|Yes|No|0
Wheel Measures|Dimensions|||String|Yes|No|0
Testing & Measurement Tools|Diode Test|||String|Yes|No|0
Trash & Centrifugal Pumps|Discharge Pressure||psi|Numeric|Yes|No|0
Submersible/Utility/Sump Pumps|Discharge Size|||String|Yes|No|0
Trash & Centrifugal Pumps|Discharge Size|||String|Yes|No|0
Trash & Centrifugal Pumps|Displacement Volume||CC|Numeric|Yes|No|0
Concrete Test Equipment|Display|||String|Yes|No|0
Point/Line Lasers|Display|||String|Yes|No|0
Testing & Measurement Tools|Display|||String|Yes|No|0
Jobsite|Drawer Size|||String|Yes|No|0
Hole Saws & Arbors|Drill Size||in|Numeric|Yes|No|0
Core Drills & Stands|Drive Size||in|Numeric|Yes|No|0
Drill Chuck & Chuck adaptors|Drive Size||in|Numeric|Yes|No|0
Drill Extensions|Drive Size||in|Numeric|Yes|No|0
Impact Sockets and Adapters|Drive Size||in|Numeric|Yes|No|0
Impacts|Drive Size||in|Numeric|Yes|No|0
Insert Bits|Drive Size||in|Numeric|Yes|No|0
Nutsetters|Drive Size||in|Numeric|Yes|No|0
Power Bits|Drive Size||in|Numeric|Yes|No|0
Screw Guides & Bit Holders|Drive Size||in|Numeric|Yes|No|0
Sets|Drive Size||in|Numeric|Yes|No|0
Band Saws|Drive Type|||String|Yes|No|0
Circular Saw Blades|Drive Type|||String|Yes|No|0
Drill Chuck & Chuck adaptors|Drive Type|||String|Yes|No|0
Impacts|Drive Type|||String|Yes|No|0
Insert Bits|Drive Type|||String|Yes|No|0
Nutsetters|Drive Type|||String|Yes|No|0
Power Bits|Drive Type|||String|Yes|No|0
Pump Jacks|Drop Size|||String|Yes|No|0
Vacuum/Blower/Ventilator Accessories|Dry Capacity|||String|Yes|No|0
Wet/Dry|Dry Capacity|||String|Yes|No|0
General Purpose Adhesive|Dry Time||hr|Numeric|Yes|No|0
Testing & Measurement Tools|Duty Cycle|||String|Yes|No|0
Hole Saws & Arbors|Edge Thickness|||String|Yes|No|0
Power Tools Repair Parts|Efficiency|||String|Yes|No|0
Vacuum/Blower/Ventilator Accessories|Efficiency|||String|Yes|No|0
Power Tools Repair Parts|Element Material|||String|Yes|No|0
Vacuum/Blower/Ventilator Accessories|Element Material|||String|Yes|No|0
Testing & Measurement Tools|Enclosure Rating|||String|Yes|No|0
Hex Keys/Torx|End Style|||String|Yes|No|0
Cutoff Saws|Engine Displacement||cu-in|Numeric|Yes|No|0
Generators|Engine HP||hp|Numeric|Yes|No|0
Generators|Engine Size||cc|Numeric|Yes|No|0
Wheel Measures|Extended Dimension||in|Numeric|Yes|No|0
Combination Ladders|Extended Ladder Height||ft|String|Yes|No|0
Wire Wheels & Brushes|Face Width||in|Numeric|Yes|No|0
Core Drills & Stands|Feed Rates|||String|Yes|No|0
Filters/Cartridges|Filter Class|||String|Yes|No|0
Respirators|Filter Efficiency Level|||String|Yes|No|0
Filters/Cartridges|Filter Media|||String|Yes|No|0
Filters/Cartridges|Filter Mounting|||String|Yes|No|0
Filters/Cartridges|Filter Protection|||String|Yes|No|0
Adjustable Wrenches|Finish|||String|Yes|No|0
Band Saw Blades|Finish|||String|Yes|No|0
Chisels/Punches|Finish|||String|Yes|No|0
Chop Saws|Finish|||String|Yes|No|0
Circular Saw Blades|Finish|||String|Yes|No|0
Collated Nails|Finish|||String|Yes|No|0
Combination Ladders|Finish|||String|Yes|No|0
Connecting Devices|Finish|||String|Yes|No|0
Core Bits & Accessories|Finish|||String|Yes|No|0
Core Drills & Stands|Finish|||String|Yes|No|0
Cup Wheels|Finish|||String|Yes|No|0
Damond Blades|Finish|||String|Yes|No|0
Door Hanging Templates|Finish|||String|Yes|No|0
Drill Chuck & Chuck adaptors|Finish|||String|Yes|No|0
Drill Extensions|Finish|Black Oxide||Value Set|Yes|No|0
Drill Extensions|Finish|Titanium Coated||Value Set|Yes|No|0
Drill Extensions|Finish|Gold Oxide||Value Set|Yes|No|0
Drill Sets|Finish|||String|Yes|No|0
Generator Accessories|Finish|||String|Yes|No|0
Glass/Tile Bits|Finish|||String|Yes|No|0
Grinder Guards/Mounting parts|Finish|||String|Yes|No|0
Hack Saws|Finish|||String|Yes|No|0
Hammer Handles|Finish|||String|Yes|No|0
Hammers/Pullers|Finish|||String|Yes|No|0
Hex Keys/Torx|Finish|||String|Yes|No|0
Hole Saws & Arbors|Finish|||String|Yes|No|0
Impact Sockets and Adapters|Finish|Black||Value Set|Yes|No|0
Impact Sockets and Adapters|Finish|Black Phosphate||Value Set|Yes|No|0
Impact Sockets and Adapters|Finish|Dark Gray ||Value Set|Yes|No|0
Impacts|Finish|||String|Yes|No|0
Insert Bits|Finish|||String|Yes|No|0
Jig Saw Blades|Finish|||String|Yes|No|0
Jobsite|Finish|||String|Yes|No|0
Ladder/Lumber/Roof Racks|Finish|||String|Yes|No|0
Masonry Bits|Finish|||String|Yes|No|0
Miter|Finish|||String|Yes|No|0
Nutsetters|Finish|||String|Yes|No|0
Pipe and Tubing Cutter|Finish|||String|Yes|No|0
Pipe Devices & Collars|Finish|||String|Yes|No|0
Pliers|Finish|||String|Yes|No|0
Plumb Bobs|Finish|||String|Yes|No|0
Power Bits|Finish|||String|Yes|No|0
Power Drywall Cutters|Finish|||String|Yes|No|0
Pump Jacks|Finish|||String|Yes|No|0
PVC Cutters|Finish|||String|Yes|No|0
Reciprocating Saw Blades|Finish|||String|Yes|No|0
Rotary Hammer Bits|Finish|||String|Yes|No|0
Rotary Hammer Steel|Finish|||String|Yes|No|0
Router Bits|Finish|||String|Yes|No|0
Router Bushings & Guides|Finish|||String|Yes|No|0
Saw Accessories|Finish|||String|Yes|No|0
Screw Guides & Bit Holders|Finish|||String|Yes|No|0
Sets|Finish|||String|Yes|No|0
Sheet Metal|Finish|||String|Yes|No|0
Step Ladders|Finish|||String|Yes|No|0
Truck Boxes|Finish|||String|Yes|No|0
Van Organizers|Finish|||String|Yes|No|0
Wood Augers|Finish|||String|Yes|No|0
Wood Brad Point & Multi-Spur Bits|Finish|||String|Yes|No|0
Wrecking Bars/Pullers|Finish|||String|Yes|No|0
Pipe Devices & Collars|Fire Rating|||String|Yes|No|0
General Purpose Cleaner|Flammability Rating|||String|Yes|No|0
Compressor Oil|Flash Point||deg F|Numeric|Yes|No|0
General Purpose Adhesive|Flash Point||deg F|Numeric|Yes|No|0
Power Tools Repair Parts|Flow Rate||gpm|Numeric|Yes|No|0
Trash & Centrifugal Pumps|Flow Rate||gpm|Numeric|Yes|No|0
Vacuum/Blower/Ventilator Accessories|Flow Rate||gpm|Numeric|Yes|No|0
Air Compressors|Flow Rating||cfm|Numeric|Yes|No|0
Vacuum/Blower/Ventilator Accessories|Flow Rating||cfm|Numeric|Yes|No|0
Wet/Dry|Flow Rating||cfm|Numeric|Yes|No|0
Glass/Tile Bits|Flute Length||in|Numeric|Yes|No|0
Masonry Bits|Flute Length||in|Numeric|Yes|No|0
Rotary Hammer Bits|Flute Length||in|Numeric|Yes|No|0
Router Bits|Flute Length||in|Numeric|Yes|No|0
Wood Brad Point & Multi-Spur Bits|Flute Length||in|Numeric|Yes|No|0
Glass/Tile Bits|Flute Type|||String|Yes|No|0
Masonry Bits|Flute Type|||String|Yes|No|0
Rotary Hammer Bits|Flute Type|||String|Yes|No|0
Router Bits|Flute Type|||String|Yes|No|0
Wood Brad Point & Multi-Spur Bits|Flute Type|||String|Yes|No|0
Compressor Oil|Form|||String|Yes|No|0
Fire Barrier Caulking|Form|||String|Yes|No|0
Fire Stop Silicones|Form|||String|Yes|No|0
General Purpose Adhesive|Form|||String|Yes|No|0
Generator Accessories|Frame|||String|Yes|No|0
Glasses|Frame Color|||String|Yes|No|0
Glasses|Frame Material|||String|Yes|No|0
Hack Saws|Frame Material|||String|Yes|No|0
Testing & Measurement Tools|Frequency Rating||kHz|String|Yes|No|0
Wet/Dry|Frequency Rating||kHz|String|Yes|No|0
Generators|Fuel|||String|Yes|No|0
Cutoff Saws|Fuel Capacity||gal|Numeric|Yes|No|0
Flat Saws|Fuel Capacity||gal|Numeric|Yes|No|0
Generators|Fuel Tank Capacity||gal|Numeric|Yes|No|0
Stud Finders|Function|||String|Yes|No|0
Compressor Oil|Grade|||String|Yes|No|0
Abrasive Sanding Belts|Grade/Grit|100|Grit|Value Set|Yes|No|0
Abrasive Sanding Belts|Grade/Grit|120|Grit|Value Set|Yes|No|0
Abrasive Sanding Belts|Grade/Grit|150|Grit|Value Set|Yes|No|0
Abrasive Sanding Belts|Grade/Grit|180|Grit|Value Set|Yes|No|0
Abrasive Sanding Belts|Grade/Grit|80|Grit|Value Set|Yes|No|0
Abrasive Sanding Discs|Grade/Grit|100|Grit|Value Set|Yes|No|0
Abrasive Sanding Discs|Grade/Grit|120|Grit|Value Set|Yes|No|0
Abrasive Sanding Discs|Grade/Grit|150|Grit|Value Set|Yes|No|0
Abrasive Sanding Discs|Grade/Grit|180|Grit|Value Set|Yes|No|0
Abrasive Sanding Discs|Grade/Grit|80|Grit|Value Set|Yes|No|0
Abrasive Sanding Sheets|Grade/Grit|100|Grit|Value Set|Yes|No|0
Abrasive Sanding Sheets|Grade/Grit|120|Grit|Value Set|Yes|No|0
Abrasive Sanding Sheets|Grade/Grit|150|Grit|Value Set|Yes|No|0
Abrasive Sanding Sheets|Grade/Grit|180|Grit|Value Set|Yes|No|0
Abrasive Sanding Sheets|Grade/Grit|80|Grit|Value Set|Yes|No|0
Cup Wheels|Grade/Grit|||String|Yes|No|0
Cut-off Wheels|Grade/Grit|||String|Yes|No|0
Grinding Wheels|Grade/Grit|||String|Yes|No|0
Chop Saws|Guard Type|||String|Yes|No|0
Fastening Tool Accessories|Handle|||String|Yes|No|0
Pipe and Tubing Cutter|Handle|||String|Yes|No|0
Rotary Hammer Steel|Handle|||String|Yes|No|0
Sheet Metal|Handle Color|||String|Yes|No|0
Hack Saws|Handle Design|||String|Yes|No|0
PVC Cutters|Handle Design|||String|Yes|No|0
Wood Saws|Handle Design|||String|Yes|No|0
Adjustable Wrenches|Handle Length||in|Numeric|Yes|No|0
Drill Chuck & Chuck adaptors|Handle Length||in|Numeric|Yes|No|0
Hammers/Pullers|Handle Length||in|Numeric|Yes|No|0
Hex Keys/Torx|Handle Length||in|Numeric|Yes|No|0
Rotary Hammer Steel|Handle Length||in|Numeric|Yes|No|0
Floor Scrappers & Blades|Handle Material|||String|Yes|No|0
Hack Saws|Handle Material|||String|Yes|No|0
Hammers/Pullers|Handle Material|||String|Yes|No|0
Knives|Handle Material|||String|Yes|No|0
Nut Drivers|Handle Material|||String|Yes|No|0
Pliers|Handle Material|||String|Yes|No|0
PVC Cutters|Handle Material|||String|Yes|No|0
Rotary Hammer Steel|Handle Material|||String|Yes|No|0
Wood Saws|Handle Material|||String|Yes|No|0
Floor Scrappers & Blades|Handle Size|||String|Yes|No|0
Drill Drivers/Hammer Drills|Handle Style|||String|Yes|No|0
Impacts|Handle Style|||String|Yes|No|0
Rotary Hammers|Handle Style|||String|Yes|No|0
Adjustable Wrenches|Handle Type|||String|Yes|No|0
Chop Saws|Handle Type|||String|Yes|No|0
Cutoff Saws|Handle Type|||String|Yes|No|0
Demo Hammers|Handle Type|||String|Yes|No|0
Die Grinders|Handle Type|||String|Yes|No|0
Disc Grinders/Sanders|Handle Type|||String|Yes|No|0
Drill Chuck & Chuck adaptors|Handle Type|||String|Yes|No|0
Floor Scrappers & Blades|Handle Type|||String|Yes|No|0
Hack Saws|Handle Type|||String|Yes|No|0
Jobsite|Handle Type|||String|Yes|No|0
Knives|Handle Type|||String|Yes|No|0
Nut Drivers|Handle Type|||String|Yes|No|0
Nutsetters|Handle Type|||String|Yes|No|0
Pliers|Handle Type|||String|Yes|No|0
PVC Cutters|Handle Type|||String|Yes|No|0
Sheet Metal|Handle Type|||String|Yes|No|0
Wheel Measures|Handle Type|||String|Yes|No|0
Collated Nails|Head Diameter|||String|Yes|No|0
Hammers/Pullers|Head Material|||String|Yes|No|0
Adjustable Wrenches|Head Size|||String|Yes|No|0
Hammers/Pullers|Head Size|||String|Yes|No|0
Collated Nails|Head Type|||String|Yes|No|0
Tripods|Head Type|||String|Yes|No|0
Hammers/Pullers|Head Weight||oz|Numeric|Yes|No|0
Circular Saw Blades|Height||in|Numeric|Yes|No|0
Filters/Cartridges|Height||in|Numeric|Yes|No|0
Generators|Height||in|Numeric|Yes|No|0
Hand Tool boxes|Height||in|Numeric|Yes|No|0
Jobsite|Height||in|Numeric|Yes|No|0
Ladder/Lumber/Roof Racks|Height||in|Numeric|Yes|No|0
Miter|Height||in|Numeric|Yes|No|0
Pipe Devices & Collars|Height||in|Numeric|Yes|No|0
Saw Accessories|Height||in|Numeric|Yes|No|0
Security Systems|Height||in|Numeric|Yes|No|0
Submersible/Utility/Sump Pumps|Height||in|Numeric|Yes|No|0
Tile/Brick/Block saws|Height||in|Numeric|Yes|No|0
Tool & Bucket Bags|Height||in|Numeric|Yes|No|0
Transfer Tanks & Pumps|Height||in|Numeric|Yes|No|0
Truck Boxes|Height||in|Numeric|Yes|No|0
Van Organizers|Height||in|Numeric|Yes|No|0
Step Ladders|Height of Platform||in|String|Yes|No|0
Hex Keys/Torx|Hex Size|||String|Yes|No|0
Miter|Hold Capacity||lb|Numeric|Yes|No|0
Saw Accessories|Hold Capacity||lb|Numeric|Yes|No|0
Hole Saws & Arbors|Hole Diameter||in|Numeric|Yes|No|0
Hole Saws & Arbors|Hole Saw Size|||String|Yes|No|0
Lanyards & Ropes|Hook Material|||String|Yes|No|0
Lanyards & Ropes|Hook Type|||String|Yes|No|0
Roofer Kits|Hook Type|||String|Yes|No|0
Chop Saws|Horse Power||hp|Numeric|Yes|No|0
Trash & Centrifugal Pumps|Horsepower||hp|Numeric|Yes|No|0
Vacuum/Blower/Ventilator Accessories|Hose Size|||String|Yes|No|0
Wet/Dry|Hose Size|||String|Yes|No|0
Finish Nailers|Housing Material|||String|Yes|No|0
Framing Nailers|Housing Material|||String|Yes|No|0
Heat Guns|Housing Type|||String|Yes|No|0
Impacts|Housing Type|||String|Yes|No|0
Nibblers & Shears|Housing Type|||String|Yes|No|0
Demo Hammers|Impact Energy||ft-lb|Numeric|Yes|No|0
Submersible/Utility/Sump Pumps|Impeller Material|||String|Yes|No|0
Trash & Centrifugal Pumps|Impeller Material|||String|Yes|No|0
Trash & Centrifugal Pumps|Impeller Size|||String|Yes|No|0
Auto Levels|Includes|||Long|Yes|No|0
Band Saws|Includes|||Long|Yes|No|0
Cameras & Films|Includes|||Long|Yes|No|0
Chisels/Punches|Includes|||Long|Yes|No|0
Circular|Includes|||Long|Yes|No|0
Circular Saw Blades|Includes|||Long|Yes|No|0
Combo Kit|Includes|||Long|Yes|No|0
Concrete Test Equipment|Includes|||Long|Yes|No|0
Connecting Devices|Includes|||Long|Yes|No|0
Core Drills & Stands|Includes|||Long|Yes|No|0
Cutoff Saws|Includes|||Long|Yes|No|0
Demo Hammers|Includes|||Long|Yes|No|0
Die Grinders|Includes|||Long|Yes|No|0
Disc Grinders/Sanders|Includes|||Long|Yes|No|0
Drill Drivers/Hammer Drills|Includes|||Long|Yes|No|0
Drill Sets|Includes|||Long|Yes|No|0
Fastening Tool Accessories|Includes|||Long|Yes|No|0
Finish Nailers|Includes|||Long|Yes|No|0
Flat Saws|Includes|||Long|Yes|No|0
Framing Nailers|Includes|||Long|Yes|No|0
Generator Accessories|Includes|||Long|Yes|No|0
Hex Keys/Torx|Includes|||Long|Yes|No|0
Impacts|Includes|||Long|Yes|No|0
Jig|Includes|||Long|Yes|No|0
Job Site Radios & Accessories|Includes|||Long|Yes|No|0
Ladder Accessories|Includes|||Long|Yes|No|0
Lanyards & Ropes|Includes|||Long|Yes|No|0
Masonry Bits|Includes|||Long|Yes|No|0
Miter|Includes|||Long|Yes|No|0
Nibblers & Shears|Includes|||Long|Yes|No|0
Nutsetters|Includes|||Long|Yes|No|0
Oscillating|Includes|||Long|Yes|No|0
Pipe and Tubing Cutter|Includes|||Long|Yes|No|0
Point/Line Lasers|Includes|||Long|Yes|No|0
Reciprocating|Includes|||Long|Yes|No|0
Reciprocating Saw Blades|Includes|||Long|Yes|No|0
Rotary Hammer Bits|Includes|||Long|Yes|No|0
Rotary Hammers|Includes|||Long|Yes|No|0
Router Bits|Includes|||Long|Yes|No|0
Saw Accessories|Includes|||Long|Yes|No|0
Security Systems|Includes|||Long|Yes|No|0
Sets|Includes|||Long|Yes|No|0
Stud Finders|Includes|||Long|Yes|No|0
Table|Includes|||Long|Yes|No|0
Testing & Measurement Tools|Includes|||Long|Yes|No|0
Tile/Brick/Block saws|Includes|||Long|Yes|No|0
Transfer Tanks & Pumps|Includes|||Long|Yes|No|0
Truck Boxes|Includes|||Long|Yes|No|0
Vacuum/Blower/Ventilator Accessories|Includes|||Long|Yes|No|0
Wet/Dry|Includes|||Long|Yes|No|0
Wood Augers|Includes|||Long|Yes|No|0
Auto Levels|Indicator Type|||String|Yes|No|0
Point/Line Lasers|Indicator Type|||String|Yes|No|0
Air Compressors|Inlet Size|||String|Yes|No|0
Cordless Tool Batteries/Chargers|Input Voltage||VDC|Numeric|Yes|No|0
Generators|Input Voltage||VDC|Numeric|Yes|No|0
Door Hanging Templates|Inside Diameter||in|Numeric|Yes|No|0
Generator Accessories|Interrupt Rating|||String|Yes|No|0
Adjustable Wrenches|Jaw Capacity||in|Numeric|Yes|No|0
Pliers|Jaw Capacity||in|Numeric|Yes|No|0
Pliers|Jaw Length||in|Numeric|Yes|No|0
Pliers|Jaw Material|||String|Yes|No|0
Pliers|Jaw Thickness||in|Numeric|Yes|No|0
Sheet Metal|Jaw Type|||String|Yes|No|0
Pliers|Jaw Width||in|Numeric|Yes|No|0
Hex Keys/Torx|Key Length|||String|Yes|No|0
Drill Chuck & Chuck adaptors|Key Number|||String|Yes|No|0
Hole Saws & Arbors|Kit Contents|||String|Yes|No|0
Rescue Systems|Kit Contents|||String|Yes|No|0
Vacuum/Blower/Ventilator Accessories|Kit Contents|||String|Yes|No|0
Knives|Knife Material|||String|Yes|No|0
Combination Ladders|Ladder Height||ft|Numeric|Yes|No|0
Extension Ladders|Ladder Height||ft|Numeric|Yes|No|0
Step Ladders|Ladder Height||ft|Numeric|Yes|No|0
Flashlights|Lamp Type|||String|Yes|No|0
Generator Accessories|Lamp Type|||String|Yes|No|0
Hammers/Pullers|Leg Length|||String|Yes|No|0
Abrasive Sanding Belts|Length||yd|Numeric|Yes|No|0
Abrasive Sanding Discs|Length||yd|Numeric|Yes|No|0
Abrasive Sanding Sheets|Length||yd|Numeric|Yes|No|0
Band Saw Blades|Length||yd|Numeric|Yes|No|0
Circular Saw Blades|Length||yd|Numeric|Yes|No|0
Collated Nails|Length||yd|Numeric|Yes|No|0
Connecting Devices|Length||yd|Numeric|Yes|No|0
Core Drills & Stands|Length||yd|Numeric|Yes|No|0
Drill Chuck & Chuck adaptors|Length||yd|Numeric|Yes|No|0
Filters/Cartridges|Length||yd|Numeric|Yes|No|0
Fire Stop Duct Wrap|Length||yd|Numeric|Yes|No|0
Flashlights|Length||yd|Numeric|Yes|No|0
Generator Accessories|Length||yd|Numeric|Yes|No|0
Generators|Length||yd|Numeric|Yes|No|0
Glass/Tile Bits|Length||yd|Numeric|Yes|No|0
Hack Saws|Length||yd|Numeric|Yes|No|0
Hammer Handles|Length||yd|Numeric|Yes|No|0
Heat Guns|Length||yd|Numeric|Yes|No|0
Hole Saws & Arbors|Length||yd|Numeric|Yes|No|0
Impact Sockets and Adapters|Length||yd|Numeric|Yes|No|0
Insert Bits|Length||yd|Numeric|Yes|No|0
Jig Saw Blades|Length||yd|Numeric|Yes|No|0
Jobsite|Length||yd|Numeric|Yes|No|0
Knives|Length||yd|Numeric|Yes|No|0
Ladder/Lumber/Roof Racks|Length||yd|Numeric|Yes|No|0
Lanyards & Ropes|Length||yd|Numeric|Yes|No|0
Masonry Bits|Length||yd|Numeric|Yes|No|0
Miter|Length||yd|Numeric|Yes|No|0
Nutsetters|Length||yd|Numeric|Yes|No|0
Pipe Devices & Collars|Length||yd|Numeric|Yes|No|0
Point/Line Lasers|Length||yd|Numeric|Yes|No|0
Power Bits|Length||yd|Numeric|Yes|No|0
PVC Cutters|Length||yd|Numeric|Yes|No|0
Reciprocating Saw Blades|Length||yd|Numeric|Yes|No|0
Roofer Kits|Length||yd|Numeric|Yes|No|0
Rotary Hammer Bits|Length||yd|Numeric|Yes|No|0
Rotary Hammer Steel|Length||yd|Numeric|Yes|No|0
Router Bits|Length||yd|Numeric|Yes|No|0
Saw Accessories|Length||yd|Numeric|Yes|No|0
Security Systems|Length||yd|Numeric|Yes|No|0
Sets|Length||yd|Numeric|Yes|No|0
Tape Measures|Length||yd|Numeric|Yes|No|0
Tapes|Length||yd|Numeric|Yes|No|0
Tile/Brick/Block saws|Length||yd|Numeric|Yes|No|0
Transfer Tanks & Pumps|Length||yd|Numeric|Yes|No|0
Tripods|Length||yd|Numeric|Yes|No|0
Truck Boxes|Length||yd|Numeric|Yes|No|0
Van Organizers|Length||yd|Numeric|Yes|No|0
Wood Brad Point & Multi-Spur Bits|Length||yd|Numeric|Yes|No|0
Wood Saws|Length||yd|Numeric|Yes|No|0
Fastening Tool Accessories|Length Range|||String|Yes|No|0
Flashlights|Lens|||String|Yes|No|0
Glasses|Lens Coating|||String|Yes|No|0
Glasses|Lens Color|||String|Yes|No|0
Glasses|Lens Material|||String|Yes|No|0
Glasses|Lens Shade|||String|Yes|No|0
Glasses|Lens Size|||String|Yes|No|0
Glasses|Lens Thickness|||String|Yes|No|0
Glasses|Lens Width|||String|Yes|No|0
Glass/Tile Bits|Letter/Wire Size|||String|Yes|No|0
Point/Line Lasers|Leveling Type|||String|Yes|No|0
Jobsite|Lid Type|||String|Yes|No|0
Connecting Devices|Lifting Capacity||ton|Numeric|Yes|No|0
Combination Ladders|Load Capacity||lb|Numeric|Yes|No|0
Extension Ladders|Load Capacity||lb|Numeric|Yes|No|0
Ladder Accessories|Load Capacity||lb|Numeric|Yes|No|0
Ladder/Lumber/Roof Racks|Load Capacity||lb|Numeric|Yes|No|0
Step Ladders|Load Capacity||lb|Numeric|Yes|No|0
Testing & Measurement Tools|Load Current|||String|Yes|No|0
Jobsite|Load Rating||lb|Numeric|Yes|No|0
Impact Sockets and Adapters|Locking Type|||String|Yes|No|0
Flashlights|Lumens||Lumens|Numeric|Yes|No|0
Generator Accessories|Lumens||Lumens|Numeric|Yes|No|0
Finish Nailers|Magazine Capacity|||String|Yes|No|0
Framing Nailers|Magazine Capacity|||String|Yes|No|0
Glasses|Magnification|||String|Yes|No|0
Adjustable Wrenches|Material|||String|Yes|No|0
Band Saw Blades|Material|||String|Yes|No|0
Cameras & Films|Material|||String|Yes|No|0
Chisels/Punches|Material|||String|Yes|No|0
Chop Saws|Material|||String|Yes|No|0
Circular Saw Blades|Material|||String|Yes|No|0
Collated Nails|Material|||String|Yes|No|0
Combination Ladders|Material|||String|Yes|No|0
Connecting Devices|Material|||String|Yes|No|0
Core Bits & Accessories|Material|||String|Yes|No|0
Core Drills & Stands|Material|||String|Yes|No|0
Cup Wheels|Material|||String|Yes|No|0
Damond Blades|Material|||String|Yes|No|0
Demo Hammers|Material|||String|Yes|No|0
Die Grinders|Material|||String|Yes|No|0
Disc Grinders/Sanders|Material|||String|Yes|No|0
Door Hanging Templates|Material|||String|Yes|No|0
Drill Chuck & Chuck adaptors|Material|||String|Yes|No|0
Drill Extensions|Material|||String|Yes|No|0
Drill Sets|Material|||String|Yes|No|0
Extension Ladders|Material|||String|Yes|No|0
Fire Stop Duct Wrap|Material|||String|Yes|No|0
Flashlights|Material|||String|Yes|No|0
Generator Accessories|Material|||String|Yes|No|0
Generators|Material|||String|Yes|No|0
Glass/Tile Bits|Material|||String|Yes|No|0
Grinder Guards/Mounting parts|Material|||String|Yes|No|0
Hammer Handles|Material|||String|Yes|No|0
Hammers/Pullers|Material|||String|Yes|No|0
Hand Tool boxes|Material|||String|Yes|No|0
Hex Keys/Torx|Material|||String|Yes|No|0
Hole Saws & Arbors|Material|||String|Yes|No|0
Impact Sockets and Adapters|Material|||String|Yes|No|0
Impacts|Material|||String|Yes|No|0
Insert Bits|Material|||String|Yes|No|0
Jig Saw Blades|Material|||String|Yes|No|0
Job Site Radios & Accessories|Material|||String|Yes|No|0
Jobsite|Material|||String|Yes|No|0
Knives|Material|||String|Yes|No|0
Ladder Accessories|Material|||String|Yes|No|0
Ladder/Lumber/Roof Racks|Material|||String|Yes|No|0
Lanyards & Ropes|Material|||String|Yes|No|0
Masonry Bits|Material|||String|Yes|No|0
Miter|Material|||String|Yes|No|0
Muffs|Material|||String|Yes|No|0
Nutsetters|Material|||String|Yes|No|0
Pipe and Tubing Cutter|Material|||String|Yes|No|0
Pipe Devices & Collars|Material|||String|Yes|No|0
Plugs|Material|||String|Yes|No|0
Plumb Bobs|Material|||String|Yes|No|0
Power Bits|Material|||String|Yes|No|0
Power Drywall Cutters|Material|||String|Yes|No|0
Pump Jacks|Material|||String|Yes|No|0
Reciprocating Saw Blades|Material|||String|Yes|No|0
Rescue Systems|Material|||String|Yes|No|0
Respirators|Material|||String|Yes|No|0
Rotary Hammer Bits|Material|||String|Yes|No|0
Rotary Hammer Steel|Material|||String|Yes|No|0
Router & Rotary Tools|Material|||String|Yes|No|0
Router Bits|Material|||String|Yes|No|0
Router Bushings & Guides|Material|||String|Yes|No|0
Saw Accessories|Material|||String|Yes|No|0
Screw Guides & Bit Holders|Material|||String|Yes|No|0
Sets|Material|||String|Yes|No|0
Sheet Metal|Material|||String|Yes|No|0
Step Ladders|Material|||String|Yes|No|0
Stud Finders|Material|||String|Yes|No|0
Submersible/Utility/Sump Pumps|Material|||String|Yes|No|0
Table|Material|||String|Yes|No|0
Tool & Bucket Bags|Material|||String|Yes|No|0
Transfer Tanks & Pumps|Material|||String|Yes|No|0
Tripods|Material|||String|Yes|No|0
Truck Boxes|Material|||String|Yes|No|0
Vacuum/Blower/Ventilator Accessories|Material|||String|Yes|No|0
Van Organizers|Material|||String|Yes|No|0
Wet/Dry|Material|||String|Yes|No|0
Wheel Measures|Material|||String|Yes|No|0
Wood Augers|Material|||String|Yes|No|0
Wood Brad Point & Multi-Spur Bits|Material|||String|Yes|No|0
Wrecking Bars/Pullers|Material|||String|Yes|No|0
Core Bits & Accessories|Material Specification|||String|Yes|No|0
Extension Ladders|Maximum Extension Length||ft|Numeric|Yes|No|0
Trash & Centrifugal Pumps|Maximum Head||ft|Numeric|Yes|No|0
Wheel Measures|Measiring Range||ft|Numeric|Yes|No|0
Auto Levels|Measuring Range||m|String|Yes|No|0
Point/Line Lasers|Measuring Range||m|String|Yes|No|0
Vacuum/Blower/Ventilator Accessories|Media|||String|Yes|No|0
Power Tools Repair Parts|Micron Rating||u|Numeric|Yes|No|0
Vacuum/Blower/Ventilator Accessories|Micron Rating||u|Numeric|Yes|No|0
Nibblers & Shears|Minimum Cut Radius||in|Numeric|Yes|No|0
Miter|Miter Capacity||deg|Numeric|Yes|No|0
Cameras & Films|Monitor Size||in|Numeric|Yes|No|0
Core Drills & Stands|Motor||hp|Numeric|Yes|No|0
Die Grinders|Motor Horsepower||hp|Numeric|Yes|No|0
Disc Grinders/Sanders|Motor Horsepower||hp|Numeric|Yes|No|0
Table|Motor Horsepower||hp|Numeric|Yes|No|0
Air Compressors|Motor Speed||rpm|Numeric|Yes|No|0
Air Compressors|Motor Type|||String|Yes|No|0
Cutoff Saws|Motor Type|||String|Yes|No|0
Flat Saws|Motor Type|||String|Yes|No|0
Submersible/Utility/Sump Pumps|Motor Type|||String|Yes|No|0
Tile/Brick/Block saws|Motor Type|||String|Yes|No|0
Generator Accessories|Mounting Size|||String|Yes|No|0
Point/Line Lasers|Mounting Size|||String|Yes|No|0
Tripods|Mounting Thread Size|||String|Yes|No|0
Connecting Devices|Mounting Type|||String|Yes|No|0
Generator Accessories|Mounting Type|||String|Yes|No|0
Pipe Devices & Collars|Mounting Type|||String|Yes|No|0
Pump Jacks|Mounting Type|||String|Yes|No|0
Roofer Kits|Mounting Type|||String|Yes|No|0
Trash & Centrifugal Pumps|Mounting Type|||String|Yes|No|0
Finish Nailers|Nail Diameter||ga|Numeric|Yes|No|0
Framing Nailers|Nail Diameter||ga|Numeric|Yes|No|0
Finish Nailers|Nail Length Capacity||in|String|Yes|No|0
Framing Nailers|Nail Length Capacity||in|String|Yes|No|0
Chop Saws|NO Load Speed||sfpm|Numeric|Yes|No|0
Circular|No Load Speed||sfpm|Numeric|Yes|No|0
Core Drills & Stands|No Load Speed||sfpm|Numeric|Yes|No|0
Cutoff Saws|No Load Speed||sfpm|Numeric|Yes|No|0
Die Grinders|No Load Speed||sfpm|Numeric|Yes|No|0
Disc Grinders/Sanders|No Load Speed||sfpm|Numeric|Yes|No|0
Drill Drivers/Hammer Drills|No Load Speed||sfpm|Numeric|Yes|No|0
Impacts|No Load Speed||sfpm|Numeric|Yes|No|0
Miter|No Load Speed||sfpm|Numeric|Yes|No|0
Nibblers & Shears|No Load Speed||sfpm|Numeric|Yes|No|0
Rotary Hammers|No Load Speed||sfpm|Numeric|Yes|No|0
Router & Rotary Tools|No Load Speed||sfpm|Numeric|Yes|No|0
Table|No Load Speed||sfpm|Numeric|Yes|No|0
Nibblers & Shears|No Load Strokes Speed||spm|String|Yes|No|0
Generators|Noise Level||db|Numeric|Yes|No|0
Muffs|Noise Reduction Ratio NRR||dB|Numeric|Yes|No|0
Plugs|Noise Reduction Ratio NRR||dB|Numeric|Yes|No|0
Cordless Tool Batteries/Chargers|Nominal Voltage||V|Numeric|Yes|No|0
Flashlights|Number of Batteries|||String|Yes|No|0
Auto Levels|Number of Beams|||Numeric|Yes|No|0
Point/Line Lasers|Number of Beams|||Numeric|Yes|No|0
Knives|Number of Blades|||Numeric|Yes|No|0
Pump Jacks|Number of Braces|||String|Yes|No|0
Truck Boxes|Number of Dividers|||Numeric|Yes|No|0
Van Organizers|Number of Dividers|||Numeric|Yes|No|0
Hand Tool boxes|Number of Drawers|||Numeric|Yes|No|0
Jobsite|Number of Drawers|||Numeric|Yes|No|0
Truck Boxes|Number of Drawers|||Numeric|Yes|No|0
Van Organizers|Number of Drawers|||Numeric|Yes|No|0
Glass/Tile Bits|Number of Flutes|||Numeric|Yes|No|0
Masonry Bits|Number of Flutes|||Numeric|Yes|No|0
Rotary Hammer Bits|Number of Flutes|||Numeric|Yes|No|0
Router Bits|Number of Flutes|||Numeric|Yes|No|0
Wood Brad Point & Multi-Spur Bits|Number of Flutes|||Numeric|Yes|No|0
Wire Wheels & Brushes|Number of Knots|||String|Yes|No|0
Flashlights|Number of Lamps|||String|Yes|No|0
Generators|Number of Outlets|||Numeric|Yes|No|0
Generator Accessories|Number of Phase|||String|Yes|No|0
Chisels/Punches|Number of Pieces|||Numeric|Yes|No|0
Drill Sets|Number of Pieces|||Numeric|Yes|No|0
Fastening Tool Accessories|Number of Pieces|||Numeric|Yes|No|0
Generator Accessories|Number of Pieces|||Numeric|Yes|No|0
Hex Keys/Torx|Number of Pieces|||Numeric|Yes|No|0
Impacts|Number of Pieces|||Numeric|Yes|No|0
Jobsite|Number of Pieces|||Numeric|Yes|No|0
Masonry Bits|Number of Pieces|||Numeric|Yes|No|0
Nut Drivers|Number of Pieces|||Numeric|Yes|No|0
Nutsetters|Number of Pieces|||Numeric|Yes|No|0
Reciprocating Saw Blades|Number of Pieces|||Numeric|Yes|No|0
Rescue Systems|Number of Pieces|||Numeric|Yes|No|0
Rotary Hammer Bits|Number of Pieces|||Numeric|Yes|No|0
Router Bits|Number of Pieces|||Numeric|Yes|No|0
Sets|Number of Pieces|||Numeric|Yes|No|0
Wood Augers|Number of Pieces|||Numeric|Yes|No|0
Tool & Bucket Bags|Number of Pockets|||String|Yes|No|0
Nutsetters|Number of Points|||String|Yes|No|0
Generator Accessories|Number of Poles|||String|Yes|No|0
Pliers|Number of Positions|||String|Yes|No|0
Jobsite|Number of Shelves|||Numeric|Yes|No|0
Trash & Centrifugal Pumps|Number of Stages|||String|Yes|No|0
Combination Ladders|Number of Steps|||Numeric|Yes|No|0
Extension Ladders|Number of Steps|||Numeric|Yes|No|0
Step Ladders|Number of Steps|||Numeric|Yes|No|0
Circular Saw Blades|Number of Teeth|||Numeric|Yes|No|0
Cup Wheels|Number of Teeth|||Numeric|Yes|No|0
Damond Blades|Number of Teeth|||Numeric|Yes|No|0
Combo Kit|Number of Tools|||Numeric|Yes|No|0
Oscillating|Number of Tools|||Numeric|Yes|No|0
Wheel Measures|Number of Wheels|||Numeric|Yes|No|0
Fire Barrier Caulking|Odor|||String|Yes|No|0
Fire Stop Silicones|Odor|||String|Yes|No|0
Adjustable Wrenches|Offset Angle|||String|Yes|No|0
Nutsetters|Opening Size|||String|Yes|No|0
Finish Nailers|Operating Pressure||psi|Numeric|Yes|No|0
Framing Nailers|Operating Pressure||psi|Numeric|Yes|No|0
Security Systems|Operating Range|||String|Yes|No|0
Auto Levels|Operating Temperature|||String|Yes|No|0
Point/Line Lasers|Operating Temperature|||String|Yes|No|0
Finish Nailers|Operating Type|||String|Yes|No|0
Framing Nailers|Operating Type|||String|Yes|No|0
Connecting Devices|Operator|||String|Yes|No|0
Air Compressors|Outlet Size|||String|Yes|No|0
Generators|Output Power Rating||W|Numeric|Yes|No|0
Generators|Output Voltage||V|Numeric|Yes|No|0
Door Hanging Templates|Outside Diameter||in|Numeric|Yes|No|0
Adjustable Wrenches|Overall Length||in|Numeric|Yes|No|0
Chisels/Punches|Overall Length||in|Numeric|Yes|No|0
Core Bits & Accessories|Overall Length||in|Numeric|Yes|No|0
Core Drills & Stands|Overall Length||in|Numeric|Yes|No|0
Drill Extensions|Overall Length||in|Numeric|Yes|No|0
Floor Scrappers & Blades|Overall Length||in|Numeric|Yes|No|0
Hack Saws|Overall Length||in|Numeric|Yes|No|0
Hammers/Pullers|Overall Length||in|Numeric|Yes|No|0
Jig|Overall Length||in|Numeric|Yes|No|0
Knives|Overall Length||in|Numeric|Yes|No|0
Nut Drivers|Overall Length||in|Numeric|Yes|No|0
Nutsetters|Overall Length||in|Numeric|Yes|No|0
Pipe and Tubing Cutter|Overall Length||in|Numeric|Yes|No|0
Pliers|Overall Length||in|Numeric|Yes|No|0
Power Drywall Cutters|Overall Length||in|Numeric|Yes|No|0
PVC Cutters|Overall Length||in|Numeric|Yes|No|0
Rotary Hammer Steel|Overall Length||in|Numeric|Yes|No|0
Saw Accessories|Overall Length||in|Numeric|Yes|No|0
Screw Guides & Bit Holders|Overall Length||in|Numeric|Yes|No|0
Sheet Metal|Overall Length||in|Numeric|Yes|No|0
Wood Augers|Overall Length||in|Numeric|Yes|No|0
Wood Brad Point & Multi-Spur Bits|Overall Length||in|Numeric|Yes|No|0
Wrecking Bars/Pullers|Overall Length||in|Numeric|Yes|No|0
Wrecking Bars/Pullers|Overall Width||in|String|Yes|No|0
Generators|Peak Output Power||W|Numeric|Yes|No|0
Compressor Oil|Percentage VOC|||String|Yes|No|0
General Purpose Adhesive|pH Range|||String|Yes|No|0
General Purpose Cleaner|pH Range|||String|Yes|No|0
Table|Phase||ph|Numeric|Yes|No|0
Trash & Centrifugal Pumps|Phase||ph|Numeric|Yes|No|0
Drill Chuck & Chuck adaptors|Pilot Size||in|Numeric|Yes|No|0
Cameras & Films|Pipe Capacity||in|Numeric|Yes|No|0
Reciprocating Saw Blades|Pitch|||String|Yes|No|0
Chop Saws|Pivoting Fence Angle||deg|String|Yes|No|0
Step Ladders|Platform Width||in|String|Yes|No|0
Plugs|Plug Color|||String|Yes|No|0
Glass/Tile Bits|Point Angle||deg|Numeric|Yes|No|0
Masonry Bits|Point Angle||deg|Numeric|Yes|No|0
Rotary Hammer Bits|Point Angle||deg|Numeric|Yes|No|0
Router Bits|Point Angle||deg|Numeric|Yes|No|0
Glass/Tile Bits|Point Type|||String|Yes|No|0
Masonry Bits|Point Type|||String|Yes|No|0
Rotary Hammer Bits|Point Type|||String|Yes|No|0
Router Bits|Point Type|||String|Yes|No|0
Wood Brad Point & Multi-Spur Bits|Point Type|||String|Yes|No|0
Compressor Oil|Pour Point|||String|Yes|No|0
Vacuum/Blower/Ventilator Accessories|Power Cord Length||ft|Numeric|Yes|No|0
Wet/Dry|Power Cord Length||ft|Numeric|Yes|No|0
Air Compressors|Power Rating||hp|Numeric|Yes|No|0
Circular|Power Rating||hp|Numeric|Yes|No|0
Cutoff Saws|Power Rating||hp|Numeric|Yes|No|0
Demo Hammers|Power Rating||hp|Numeric|Yes|No|0
Die Grinders|Power Rating||hp|Numeric|Yes|No|0
Disc Grinders/Sanders|Power Rating||hp|Numeric|Yes|No|0
Drill Drivers/Hammer Drills|Power Rating||hp|Numeric|Yes|No|0
Flat Saws|Power Rating||hp|Numeric|Yes|No|0
Heat Guns|Power Rating||hp|Numeric|Yes|No|0
Miter|Power Rating||hp|Numeric|Yes|No|0
Rotary Hammers|Power Rating||hp|Numeric|Yes|No|0
Saw Accessories|Power Rating||hp|Numeric|Yes|No|0
Submersible/Utility/Sump Pumps|Power Rating||hp|Numeric|Yes|No|0
Tile/Brick/Block saws|Power Rating||hp|Numeric|Yes|No|0
Wet/Dry|Power Rating||hp|Numeric|Yes|No|0
Cameras & Films|Power Source|||String|Yes|No|0
Auto Levels|Power Supply|||String|Yes|No|0
Point/Line Lasers|Power Supply|||String|Yes|No|0
Auto Levels|Preset Angle||deg|String|Yes|No|0
Point/Line Lasers|Preset Angle|||String|Yes|No|0
Air Compressors|Pressure Rating||psi|Numeric|Yes|No|0
Power Tools Repair Parts|Pressure Rating||psi|Numeric|Yes|No|0
Vacuum/Blower/Ventilator Accessories|Pressure Rating||psi|Numeric|Yes|No|0
Security Systems|Process Connection|||String|Yes|No|0
Cameras & Films|Push Rod Length||ft|Numeric|Yes|No|0
Combination Ladders|Rail Type|||String|Yes|No|0
Extension Ladders|Rail Type|||String|Yes|No|0
Point/Line Lasers|Range||ft|String|Yes|No|0
Concrete Test Equipment|Repeatability||deg C|Numeric|Yes|No|0
Testing & Measurement Tools|Resistance Range||kohm|Numeric|Yes|No|0
Point/Line Lasers|Resolution|||String|Yes|No|0
Concrete Test Equipment|Response Time||ms|Numeric|Yes|No|0
Tile/Brick/Block saws|Rip Cut Size||in|Numeric|Yes|No|0
Point/Line Lasers|Rotating Speed|||String|Yes|No|0
Security Systems|Run Time||Week|Numeric|Yes|No|0
Generators|Run Time at 1/2 Load||hr|Numeric|Yes|No|0
Generators|Run Time at Full Load||hr|Numeric|Yes|No|0
Combination Ladders|Scaffold Height||ft|String|Yes|No|0
Stud Finders|Scan Depth||in|Numeric|Yes|No|0
Stud Finders|Scans|||String|Yes|No|0
Testing & Measurement Tools|Sensitivity|||String|Yes|No|0
Submersible/Utility/Sump Pumps|Shaft Material|||String|Yes|No|0
Glass/Tile Bits|Shank Diameter||in|Numeric|Yes|No|0
Masonry Bits|Shank Diameter||in|Numeric|Yes|No|0
Rotary Hammer Bits|Shank Diameter||in|Numeric|Yes|No|0
Router Bits|Shank Diameter||in|Numeric|Yes|No|0
Wood Brad Point & Multi-Spur Bits|Shank Diameter||in|Numeric|Yes|No|0
Nutsetters|Shank Length||in|Numeric|Yes|No|0
Router Bits|Shank Length||in|Numeric|Yes|No|0
Nutsetters|Shank Material|||String|Yes|No|0
Chisels/Punches|Shank Size||in|Numeric|Yes|No|0
Core Bits & Accessories|Shank Size||in|Numeric|Yes|No|0
Core Drills & Stands|Shank Size||in|Numeric|Yes|No|0
Drill Extensions|Shank Size||in|Numeric|Yes|No|0
Hole Saws & Arbors|Shank Size||in|Numeric|Yes|No|0
Impact Sockets and Adapters|Shank Size||in|Numeric|Yes|No|0
Jig Saw Blades|Shank Size||in|Numeric|Yes|No|0
Nutsetters|Shank Size||in|Numeric|Yes|No|0
Power Drywall Cutters|Shank Size||in|Numeric|Yes|No|0
Reciprocating Saw Blades|Shank Size||in|Numeric|Yes|No|0
Rotary Hammer Steel|Shank Size||in|Numeric|Yes|No|0
Saw Accessories|Shank Size||in|Numeric|Yes|No|0
Wood Augers|Shank Size||in|Numeric|Yes|No|0
Chisels/Punches|Shank Type|||String|Yes|No|0
Collated Nails|Shank Type|||String|Yes|No|0
Drill Drivers/Hammer Drills|Shank Type|||String|Yes|No|0
Glass/Tile Bits|Shank Type|||String|Yes|No|0
Hole Saws & Arbors|Shank Type|||String|Yes|No|0
Jig Saw Blades|Shank Type|||String|Yes|No|0
Masonry Bits|Shank Type|||String|Yes|No|0
Reciprocating Saw Blades|Shank Type|||String|Yes|No|0
Rotary Hammer Bits|Shank Type|||String|Yes|No|0
Rotary Hammer Steel|Shank Type|||String|Yes|No|0
Rotary Hammers|Shank Type|||String|Yes|No|0
Router Bits|Shank Type|||String|Yes|No|0
Saw Accessories|Shank Type|||String|Yes|No|0
Wood Brad Point & Multi-Spur Bits|Shank Type|||String|Yes|No|0
Drill Chuck & Chuck adaptors|Shape|||String|Yes|No|0
Hex Keys/Torx|Shape|||String|Yes|No|0
Transfer Tanks & Pumps|Shape|||String|Yes|No|0
Cordless Tool Batteries/Chargers|Shelf Life||hr|Numeric|Yes|No|0
Jobsite|Shelf Size|||String|Yes|No|0
Jobsite|Shelves Size|||String|Yes|No|0
Circular|Shoe Material|||String|Yes|No|0
Saw Accessories|Shoe Material|||String|Yes|No|0
Concrete Test Equipment|Size|||String|Yes|No|0
Connecting Devices|Size|||String|Yes|No|0
Cordless Tool Batteries/Chargers|Size|||String|Yes|No|0
Drill Chuck & Chuck adaptors|Size|||String|Yes|No|0
Drill Sets|Size|||String|Yes|No|0
Generator Accessories|Size|||String|Yes|No|0
Grinder Guards/Mounting parts|Size|||String|Yes|No|0
Hammer Handles|Size|||String|Yes|No|0
Jobsite|Size|||String|Yes|No|0
Ladder Accessories|Size|||String|Yes|No|0
Masonry Bits|Size|||String|Yes|No|0
Muffs|Size|||String|Yes|No|0
Plugs|Size|||String|Yes|No|0
Plumb Bobs|Size|||String|Yes|No|0
Pump Jacks|Size|||String|Yes|No|0
Rescue Systems|Size|||String|Yes|No|0
Respirators|Size|||String|Yes|No|0
Router Bushings & Guides|Size|||String|Yes|No|0
Vacuum/Blower/Ventilator Accessories|Size|||String|Yes|No|0
Impacts|Size Range||in|Numeric|Yes|No|0
Nutsetters|Socket Length|||String|Yes|No|0
Screw Guides & Bit Holders|Socket Length|||String|Yes|No|0
Nutsetters|Socket Size||in|Numeric|Yes|No|0
Screw Guides & Bit Holders|Socket Size||in|Numeric|Yes|No|0
Air Compressors|Sound Level|||String|Yes|No|0
Pump Jacks|Span Size|||String|Yes|No|0
Abrasive Flap Discs|Special Features|||Long|Yes|No|0
Abrasive Sanding Belts|Special Features|||Long|Yes|No|0
Abrasive Sanding Discs|Special Features|||Long|Yes|No|0
Abrasive Sanding Sheets|Special Features|||Long|Yes|No|0
Adjustable Wrenches|Special Features|||Long|Yes|No|0
Air Compressors|Special Features|||Long|Yes|No|0
Auto Levels|Special Features|||Long|Yes|No|0
Band Saw Blades|Special Features|||Long|Yes|No|0
Band Saws|Special Features|||Long|Yes|No|0
Cameras & Films|Special Features|||Long|Yes|No|0
Chisels/Punches|Special Features|||Long|Yes|No|0
Chop Saws|Special Features|||Long|Yes|No|0
Circular|Special Features|||Long|Yes|No|0
Circular Saw Blades|Special Features|||Long|Yes|No|0
Collated Nails|Special Features|||Long|Yes|No|0
Combination Ladders|Special Features|||Long|Yes|No|0
Combo Kit|Special Features|||Long|Yes|No|0
Compressor Oil|Special Features|||Long|Yes|No|0
Concrete Test Equipment|Special Features|||Long|Yes|No|0
Connecting Devices|Special Features|||Long|Yes|No|0
Cordless Tool Batteries/Chargers|Special Features|||Long|Yes|No|0
Core Bits & Accessories|Special Features|||Long|Yes|No|0
Core Drills & Stands|Special Features|||Long|Yes|No|0
Cup Wheels|Special Features|||Long|Yes|No|0
Cutoff Saws|Special Features|||Long|Yes|No|0
Cut-off Wheels|Special Features|||Long|Yes|No|0
Damond Blades|Special Features|||Long|Yes|No|0
Demo Hammers|Special Features|||Long|Yes|No|0
Die Grinders|Special Features|||Long|Yes|No|0
Disc Grinders/Sanders|Special Features|||Long|Yes|No|0
Door Hanging Templates|Special Features|||Long|Yes|No|0
Drill Chuck & Chuck adaptors|Special Features|||Long|Yes|No|0
Drill Drivers/Hammer Drills|Special Features|||Long|Yes|No|0
Drill Extensions|Special Features|||Long|Yes|No|0
Drill Sets|Special Features|||Long|Yes|No|0
Extension Ladders|Special Features|||Long|Yes|No|0
Fastening Tool Accessories|Special Features|||Long|Yes|No|0
Filters/Cartridges|Special Features|||Long|Yes|No|0
Finish Nailers|Special Features|||Long|Yes|No|0
Fire Barrier Caulking|Special Features|||Long|Yes|No|0
Fire Stop Duct Wrap|Special Features|||Long|Yes|No|0
Fire Stop Silicones|Special Features|||Long|Yes|No|0
Flashlights|Special Features|||Long|Yes|No|0
Flat Saws|Special Features|||Long|Yes|No|0
Floor Scrappers & Blades|Special Features|||Long|Yes|No|0
Framing Nailers|Special Features|||Long|Yes|No|0
General Purpose Adhesive|Special Features|||Long|Yes|No|0
General Purpose Cleaner|Special Features|||Long|Yes|No|0
Generator Accessories|Special Features|||Long|Yes|No|0
Generators|Special Features|||Long|Yes|No|0
Glass/Tile Bits|Special Features|||Long|Yes|No|0
Glasses|Special Features|||Long|Yes|No|0
Grinder Guards/Mounting parts|Special Features|||Long|Yes|No|0
Grinding Wheels|Special Features|||Long|Yes|No|0
Hack Saws|Special Features|||Long|Yes|No|0
Hammer Handles|Special Features|||Long|Yes|No|0
Hammers/Pullers|Special Features|||Long|Yes|No|0
Hand Tool boxes|Special Features|||Long|Yes|No|0
Heat Guns|Special Features|||Long|Yes|No|0
Hex Keys/Torx|Special Features|||Long|Yes|No|0
Hole Saws & Arbors|Special Features|||Long|Yes|No|0
Impact Sockets and Adapters|Special Features|||Long|Yes|No|0
Impacts|Special Features|||Long|Yes|No|0
Insert Bits|Special Features|||Long|Yes|No|0
Jig|Special Features|||Long|Yes|No|0
Jig Saw Blades|Special Features|||Long|Yes|No|0
Job Site Radios & Accessories|Special Features|||Long|Yes|No|0
Jobsite|Special Features|||Long|Yes|No|0
Knives|Special Features|||Long|Yes|No|0
Ladder Accessories|Special Features|||Long|Yes|No|0
Ladder/Lumber/Roof Racks|Special Features|||Long|Yes|No|0
Lanyards & Ropes|Special Features|||Long|Yes|No|0
Masonry Bits|Special Features|||Long|Yes|No|0
Miter|Special Features|||Long|Yes|No|0
Muffs|Special Features|||Long|Yes|No|0
Nibblers & Shears|Special Features|||Long|Yes|No|0
Nut Drivers|Special Features|||Long|Yes|No|0
Nutsetters|Special Features|||Long|Yes|No|0
Oscillating|Special Features|||Long|Yes|No|0
Pipe and Tubing Cutter|Special Features|||Long|Yes|No|0
Pipe Devices & Collars|Special Features|||Long|Yes|No|0
Pliers|Special Features|||Long|Yes|No|0
Plugs|Special Features|||Long|Yes|No|0
Plumb Bobs|Special Features|||Long|Yes|No|0
Point/Line Lasers|Special Features|||Long|Yes|No|0
Power Bits|Special Features|||Long|Yes|No|0
Power Drywall Cutters|Special Features|||Long|Yes|No|0
Power Tools Repair Parts|Special Features|||Long|Yes|No|0
Pump Jacks|Special Features|||Long|Yes|No|0
PVC Cutters|Special Features|||Long|Yes|No|0
Reciprocating|Special Features|||Long|Yes|No|0
Reciprocating Saw Blades|Special Features|||Long|Yes|No|0
Rescue Systems|Special Features|||Long|Yes|No|0
Respirators|Special Features|||Long|Yes|No|0
Roofer Kits|Special Features|||Long|Yes|No|0
Rotary Hammer Bits|Special Features|||Long|Yes|No|0
Rotary Hammer Steel|Special Features|||Long|Yes|No|0
Rotary Hammers|Special Features|||Long|Yes|No|0
Router & Rotary Tools|Special Features|||Long|Yes|No|0
Router Bits|Special Features|||Long|Yes|No|0
Router Bushings & Guides|Special Features|||Long|Yes|No|0
Saw Accessories|Special Features|||Long|Yes|No|0
Screw Guides & Bit Holders|Special Features|||Long|Yes|No|0
Security Systems|Special Features|||Long|Yes|No|0
Sets|Special Features|||Long|Yes|No|0
Sheet Metal|Special Features|||Long|Yes|No|0
Step Ladders|Special Features|||Long|Yes|No|0
Stud Finders|Special Features|||Long|Yes|No|0
Submersible/Utility/Sump Pumps|Special Features|||Long|Yes|No|0
Table|Special Features|||Long|Yes|No|0
Tape Measures|Special Features|||Long|Yes|No|0
Tapes|Special Features|||Long|Yes|No|0
Testing & Measurement Tools|Special Features|||Long|Yes|No|0
Tile/Brick/Block saws|Special Features|||Long|Yes|No|0
Tool & Bucket Bags|Special Features|||Long|Yes|No|0
Transfer Tanks & Pumps|Special Features|||Long|Yes|No|0
Trash & Centrifugal Pumps|Special Features|||Long|Yes|No|0
Tripods|Special Features|||Long|Yes|No|0
Truck Boxes|Special Features|||Long|Yes|No|0
Vacuum/Blower/Ventilator Accessories|Special Features|||Long|Yes|No|0
Van Organizers|Special Features|||Long|Yes|No|0
Wet/Dry|Special Features|||Long|Yes|No|0
Wheel Measures|Special Features|||Long|Yes|No|0
Wire Wheels & Brushes|Special Features|||Long|Yes|No|0
Wood Augers|Special Features|||Long|Yes|No|0
Wood Brad Point & Multi-Spur Bits|Special Features|||Long|Yes|No|0
Wood Saws|Special Features|||Long|Yes|No|0
Wrecking Bars/Pullers|Special Features|||Long|Yes|No|0
Compressor Oil|Specific Gravity|||Long|Yes|No|0
Abrasive Flap Discs|Speed||rpm|Numeric|Yes|No|0
Abrasive Sanding Belts|Speed||rpm|Numeric|Yes|No|0
Abrasive Sanding Discs|Speed||rpm|Numeric|Yes|No|0
Abrasive Sanding Sheets|Speed||rpm|Numeric|Yes|No|0
Circular Saw Blades|Speed||rpm|Numeric|Yes|No|0
Cup Wheels|Speed||rpm|Numeric|Yes|No|0
Cutoff Saws|Speed||rpm|Numeric|Yes|No|0
Cut-off Wheels|Speed||rpm|Numeric|Yes|No|0
Damond Blades|Speed||rpm|Numeric|Yes|No|0
Flat Saws|Speed||rpm|Numeric|Yes|No|0
Grinding Wheels|Speed||rpm|Numeric|Yes|No|0
Oscillating|Speed||rpm|Numeric|Yes|No|0
Pipe and Tubing Cutter|Speed||rpm|Numeric|Yes|No|0
Reciprocating|Speed||rpm|Numeric|Yes|No|0
Saw Accessories|Speed||rpm|Numeric|Yes|No|0
Wire Wheels & Brushes|Speed||rpm|Numeric|Yes|No|0
Jig|Speed Control|||String|Yes|No|0
Core Drills & Stands|Spindle Size|||String|Yes|No|0
Die Grinders|Spindle Size|||String|Yes|No|0
Disc Grinders/Sanders|Spindle Size|||String|Yes|No|0
Abrasive Flap Discs|Standards|||String|Yes|No|0
Abrasive Sanding Belts|Standards|||String|Yes|No|0
Abrasive Sanding Discs|Standards|||String|Yes|No|0
Abrasive Sanding Sheets|Standards|||String|Yes|No|0
Adjustable Wrenches|Standards|||String|Yes|No|0
Air Compressors|Standards|||String|Yes|No|0
Band Saw Blades|Standards|||String|Yes|No|0
Band Saws|Standards|||String|Yes|No|0
Cameras & Films|Standards|||String|Yes|No|0
Chisels/Punches|Standards|||String|Yes|No|0
Chop Saws|Standards|||String|Yes|No|0
Circular|Standards|||String|Yes|No|0
Circular Saw Blades|Standards|||String|Yes|No|0
Collated Nails|Standards|||String|Yes|No|0
Combination Ladders|Standards|||String|Yes|No|0
Combo Kit|Standards|||String|Yes|No|0
Compressor Oil|Standards|||String|Yes|No|0
Connecting Devices|Standards|||String|Yes|No|0
Cordless Tool Batteries/Chargers|Standards|||String|Yes|No|0
Core Bits & Accessories|Standards|||String|Yes|No|0
Core Drills & Stands|Standards|||String|Yes|No|0
Cup Wheels|Standards|||String|Yes|No|0
Cutoff Saws|Standards|||String|Yes|No|0
Cut-off Wheels|Standards|||String|Yes|No|0
Damond Blades|Standards|||String|Yes|No|0
Demo Hammers|Standards|||String|Yes|No|0
Die Grinders|Standards|||String|Yes|No|0
Disc Grinders/Sanders|Standards|||String|Yes|No|0
Door Hanging Templates|Standards|||String|Yes|No|0
Drill Chuck & Chuck adaptors|Standards|||String|Yes|No|0
Drill Drivers/Hammer Drills|Standards|||String|Yes|No|0
Drill Extensions|Standards|||String|Yes|No|0
Drill Sets|Standards|||String|Yes|No|0
Extension Ladders|Standards|||String|Yes|No|0
Fastening Tool Accessories|Standards|||String|Yes|No|0
Filters/Cartridges|Standards|||String|Yes|No|0
Finish Nailers|Standards|||String|Yes|No|0
Fire Barrier Caulking|Standards|||String|Yes|No|0
Fire Stop Duct Wrap|Standards|||String|Yes|No|0
Fire Stop Silicones|Standards|||String|Yes|No|0
Flashlights|Standards|||String|Yes|No|0
Flat Saws|Standards|||String|Yes|No|0
Floor Scrappers & Blades|Standards|||String|Yes|No|0
Framing Nailers|Standards|||String|Yes|No|0
General Purpose Adhesive|Standards|||String|Yes|No|0
General Purpose Cleaner|Standards|||String|Yes|No|0
Generator Accessories|Standards|||String|Yes|No|0
Generators|Standards|||String|Yes|No|0
Glasses|Standards|||String|Yes|No|0
Grinder Guards/Mounting parts|Standards|||String|Yes|No|0
Grinding Wheels|Standards|||String|Yes|No|0
Hack Saws|Standards|||String|Yes|No|0
Hammer Handles|Standards|||String|Yes|No|0
Hammers/Pullers|Standards|||String|Yes|No|0
Hand Tool boxes|Standards|||String|Yes|No|0
Heat Guns|Standards|||String|Yes|No|0
Hex Keys/Torx|Standards|||String|Yes|No|0
Hole Saws & Arbors|Standards|||String|Yes|No|0
Impact Sockets and Adapters|Standards|||String|Yes|No|0
Impacts|Standards|||String|Yes|No|0
Insert Bits|Standards|||String|Yes|No|0
Jig|Standards|||String|Yes|No|0
Jig Saw Blades|Standards|||String|Yes|No|0
Job Site Radios & Accessories|Standards|||String|Yes|No|0
Jobsite|Standards|||String|Yes|No|0
Knives|Standards|||String|Yes|No|0
Ladder Accessories|Standards|||String|Yes|No|0
Ladder/Lumber/Roof Racks|Standards|||String|Yes|No|0
Lanyards & Ropes|Standards|||String|Yes|No|0
Masonry Bits|Standards|||String|Yes|No|0
Miter|Standards|||String|Yes|No|0
Muffs|Standards|||String|Yes|No|0
Nibblers & Shears|Standards|||String|Yes|No|0
Nut Drivers|Standards|||String|Yes|No|0
Nutsetters|Standards|||String|Yes|No|0
Oscillating|Standards|||String|Yes|No|0
Pipe and Tubing Cutter|Standards|||String|Yes|No|0
Pipe Devices & Collars|Standards|||String|Yes|No|0
Pliers|Standards|||String|Yes|No|0
Plugs|Standards|||String|Yes|No|0
Point/Line Lasers|Standards|||String|Yes|No|0
Power Bits|Standards|||String|Yes|No|0
Power Drywall Cutters|Standards|||String|Yes|No|0
Power Tools Repair Parts|Standards|||String|Yes|No|0
Pump Jacks|Standards|||String|Yes|No|0
PVC Cutters|Standards|||String|Yes|No|0
Reciprocating|Standards|||String|Yes|No|0
Reciprocating Saw Blades|Standards|||String|Yes|No|0
Rescue Systems|Standards|||String|Yes|No|0
Respirators|Standards|||String|Yes|No|0
Roofer Kits|Standards|||String|Yes|No|0
Rotary Hammer Bits|Standards|||String|Yes|No|0
Rotary Hammer Steel|Standards|||String|Yes|No|0
Rotary Hammers|Standards|||String|Yes|No|0
Router & Rotary Tools|Standards|||String|Yes|No|0
Router Bits|Standards|||String|Yes|No|0
Router Bushings & Guides|Standards|||String|Yes|No|0
Saw Accessories|Standards|||String|Yes|No|0
Screw Guides & Bit Holders|Standards|||String|Yes|No|0
Security Systems|Standards|||String|Yes|No|0
Sets|Standards|||String|Yes|No|0
Sheet Metal|Standards|||String|Yes|No|0
Step Ladders|Standards|||String|Yes|No|0
Stud Finders|Standards|||String|Yes|No|0
Table|Standards|||String|Yes|No|0
Tape Measures|Standards|||String|Yes|No|0
Tapes|Standards|||String|Yes|No|0
Testing & Measurement Tools|Standards|||String|Yes|No|0
Tile/Brick/Block saws|Standards|||String|Yes|No|0
Tool & Bucket Bags|Standards|||String|Yes|No|0
Transfer Tanks & Pumps|Standards|||String|Yes|No|0
Trash & Centrifugal Pumps|Standards|||String|Yes|No|0
Tripods|Standards|||String|Yes|No|0
Truck Boxes|Standards|||String|Yes|No|0
Vacuum/Blower/Ventilator Accessories|Standards|||String|Yes|No|0
Van Organizers|Standards|||String|Yes|No|0
Wet/Dry|Standards|||String|Yes|No|0
Wheel Measures|Standards|||String|Yes|No|0
Wire Wheels & Brushes|Standards|||String|Yes|No|0
Wood Augers|Standards|||String|Yes|No|0
Wood Brad Point & Multi-Spur Bits|Standards|||String|Yes|No|0
Wood Saws|Standards|||String|Yes|No|0
Wrecking Bars/Pullers|Standards|||String|Yes|No|0
Hammers/Pullers|Staple Capacity||in|Numeric|Yes|No|0
Jobsite|Stem Size|||String|Yes|No|0
Combination Ladders|Step Type|||String|Yes|No|0
Extension Ladders|Step Type|||String|Yes|No|0
Step Ladders|Step Type|||String|Yes|No|0
Combination Ladders|Step Width||in|Numeric|Yes|No|0
Extension Ladders|Step Width||in|Numeric|Yes|No|0
Step Ladders|Step Width||in|Numeric|Yes|No|0
Combination Ladders|Stepladder Height||ft|String|Yes|No|0
Combination Ladders|Storage Height||ft|Numeric|Yes|No|0
Lanyards & Ropes|Strap Width|||String|Yes|No|0
Jig|Stroke||in|Numeric|Yes|No|0
Reciprocating|Stroke Size|||String|Yes|No|0
Band Saws|Stroke Speed||sfpm|Numeric|Yes|No|0
Demo Hammers|Stroke Speed||sfpm|Numeric|Yes|No|0
Drill Drivers/Hammer Drills|Stroke Speed||sfpm|Numeric|Yes|No|0
Impacts|Stroke Speed||sfpm|Numeric|Yes|No|0
Jig|Stroke Speed||sfpm|Numeric|Yes|No|0
Rotary Hammers|Stroke Speed||sfpm|Numeric|Yes|No|0
Cordless Tool Batteries/Chargers|Style|||String|Yes|No|0
Muffs|Style|||String|Yes|No|0
Plugs|Style|||String|Yes|No|0
Respirators|Style|||String|Yes|No|0
Trash & Centrifugal Pumps|Suction Size|||String|Yes|No|0
Demo Hammers|Switch Type|||String|Yes|No|0
Die Grinders|Switch Type|||String|Yes|No|0
Disc Grinders/Sanders|Switch Type|||String|Yes|No|0
Flashlights|Switch Type|||String|Yes|No|0
Nibblers & Shears|Switch Type|||String|Yes|No|0
Router & Rotary Tools|Switch Type|||String|Yes|No|0
Submersible/Utility/Sump Pumps|Switch Type|||String|Yes|No|0
Testing & Measurement Tools|Switch Type|||String|Yes|No|0
Table|Table Surface|||String|Yes|No|0
Air Compressors|Tank Capacity||gal|Numeric|Yes|No|0
Vacuum/Blower/Ventilator Accessories|Tank Size||gal|Numeric|Yes|No|0
Wet/Dry|Tank Size||gal|Numeric|Yes|No|0
Vacuum/Blower/Ventilator Accessories|Tank Type|||String|Yes|No|0
Wet/Dry|Tank Type|||String|Yes|No|0
Tapes|Tape Color|||String|Yes|No|0
Band Saw Blades|Teeth Per Inch|||Numeric|Yes|No|0
Hack Saws|Teeth Per Inch|||Numeric|Yes|No|0
Hole Saws & Arbors|Teeth Per Inch|||Numeric|Yes|No|0
Jig Saw Blades|Teeth Per Inch|||Numeric|Yes|No|0
PVC Cutters|Teeth Per Inch|||Numeric|Yes|No|0
Reciprocating Saw Blades|Teeth Per Inch|||Numeric|Yes|No|0
Wood Saws|Teeth Per Inch|||Numeric|Yes|No|0
Band Saw Blades|Teeth Type|||String|Yes|No|0
Circular Saw Blades|Teeth Type|||String|Yes|No|0
Cup Wheels|Teeth Type|||String|Yes|No|0
Damond Blades|Teeth Type|||String|Yes|No|0
Jig Saw Blades|Teeth Type|||String|Yes|No|0
Reciprocating Saw Blades|Teeth Type|||String|Yes|No|0
Concrete Test Equipment|Temperature Range||deg F|String|Yes|No|0
Chop Saws|Temperature Rating||deg F|String|Yes|No|0
Compressor Oil|Temperature Rating||deg F|String|Yes|No|0
Cordless Tool Batteries/Chargers|Temperature Rating||deg F|String|Yes|No|0
Fire Barrier Caulking|Temperature Rating||deg F|String|Yes|No|0
Fire Stop Duct Wrap|Temperature Rating||deg F|String|Yes|No|0
Fire Stop Silicones|Temperature Rating||deg F|String|Yes|No|0
Heat Guns|Temperature Rating||deg F|String|Yes|No|0
Point/Line Lasers|Temperature Rating||deg F|String|Yes|No|0
Submersible/Utility/Sump Pumps|Temperature Rating||deg F|String|Yes|No|0
Tapes|Temperature Rating||deg F|String|Yes|No|0
Testing & Measurement Tools|Temperature Rating||deg F|String|Yes|No|0
Glasses|Temple Length|||String|Yes|No|0
Glasses|Temple Material|||String|Yes|No|0
Glasses|Temple Style|||String|Yes|No|0
Connecting Devices|Tensile Strength||lb|Numeric|Yes|No|0
Fire Stop Duct Wrap|Tensile Strength||lb|Numeric|Yes|No|0
Lanyards & Ropes|Tensile Strength||lb|Numeric|Yes|No|0
Roofer Kits|Tensile Strength||lb|Numeric|Yes|No|0
Tape Measures|Tensile Strength||lb|Numeric|Yes|No|0
Cordless Tool Batteries/Chargers|Terminal Type|||String|Yes|No|0
Abrasive Flap Discs|Thickness||in|Numeric|Yes|No|0
Abrasive Sanding Belts|Thickness||in|Numeric|Yes|No|0
Abrasive Sanding Discs|Thickness||in|Numeric|Yes|No|0
Abrasive Sanding Sheets|Thickness||in|Numeric|Yes|No|0
Band Saw Blades|Thickness||in|Numeric|Yes|No|0
Circular Saw Blades|Thickness||in|Numeric|Yes|No|0
Core Drills & Stands|Thickness||in|Numeric|Yes|No|0
Cup Wheels|Thickness||in|Numeric|Yes|No|0
Cut-off Wheels|Thickness||in|Numeric|Yes|No|0
Damond Blades|Thickness||in|Numeric|Yes|No|0
Fire Stop Duct Wrap|Thickness||in|Numeric|Yes|No|0
Grinding Wheels|Thickness||in|Numeric|Yes|No|0
Jig Saw Blades|Thickness||in|Numeric|Yes|No|0
Knives|Thickness||in|Numeric|Yes|No|0
Reciprocating Saw Blades|Thickness||in|Numeric|Yes|No|0
Tapes|Thickness||in|Numeric|Yes|No|0
Wrecking Bars/Pullers|Thickness||in|Numeric|Yes|No|0
Point/Line Lasers|Thread Size||in|Numeric|Yes|No|0
Wood Brad Point & Multi-Spur Bits|Thread Size||in|Numeric|Yes|No|0
Wood Brad Point & Multi-Spur Bits|Thread Type|||String|Yes|No|0
Hack Saws|Throat Depth||in|Numeric|Yes|No|0
Nut Drivers|Tip Size||in|Numeric|Yes|No|0
Rotary Hammer Steel|Tip Size||in|Numeric|Yes|No|0
Fastening Tool Accessories|Tip Size Range|||String|Yes|No|0
Fastening Tool Accessories|Tip Type|||String|Yes|No|0
Rotary Hammer Steel|Tip Type|||String|Yes|No|0
Wrecking Bars/Pullers|Tip Width||in|String|Yes|No|0
Band Saws|Tool Length||in|Numeric|Yes|No|0
Chop Saws|Tool Length||in|Numeric|Yes|No|0
Circular|Tool Length||in|Numeric|Yes|No|0
Die Grinders|Tool Length||in|Numeric|Yes|No|0
Disc Grinders/Sanders|Tool Length||in|Numeric|Yes|No|0
Drill Drivers/Hammer Drills|Tool Length||in|Numeric|Yes|No|0
Nibblers & Shears|Tool Length||in|Numeric|Yes|No|0
Oscillating|Tool Length||in|Numeric|Yes|No|0
Reciprocating|Tool Length||in|Numeric|Yes|No|0
Rotary Hammers|Tool Length||in|Numeric|Yes|No|0
Router & Rotary Tools|Tool Length||in|Numeric|Yes|No|0
Hole Saws & Arbors|Tooth Pattern|||String|Yes|No|0
Drill Chuck & Chuck adaptors|Torque Rating||ft-lb|Numeric|Yes|No|0
Drill Drivers/Hammer Drills|Torque Rating||ft-lb|Numeric|Yes|No|0
Impacts|Torque Rating||ft-lb|Numeric|Yes|No|0
Rotary Hammers|Torque Rating||ft-lb|Numeric|Yes|No|0
Cameras & Films|Transmitter Frequency||GHz|Numeric|Yes|No|0
Wire Wheels & Brushes|Trim Length||in|Numeric|Yes|No|0
PVC Cutters|Tube Capacity||in|Numeric|Yes|No|0
Abrasive Flap Discs|Type|||String|Yes|No|0
Abrasive Sanding Belts|Type|||String|Yes|No|0
Abrasive Sanding Discs|Type|||String|Yes|No|0
Abrasive Sanding Sheets|Type|||String|Yes|No|0
Adjustable Wrenches|Type|||String|Yes|No|0
Air Compressors|Type|||String|Yes|No|0
Auto Levels|Type|||String|Yes|No|0
Band Saw Blades|Type|||String|Yes|No|0
Band Saws|Type|||String|Yes|No|0
Cameras & Films|Type|||String|Yes|No|0
Chisels/Punches|Type|||String|Yes|No|0
Chop Saws|Type|||String|Yes|No|0
Circular|Type|||String|Yes|No|0
Circular Saw Blades|Type|||String|Yes|No|0
Collated Nails|Type|||String|Yes|No|0
Combination Ladders|Type|||String|Yes|No|0
Combo Kit|Type|||String|Yes|No|0
Compressor Oil|Type|||String|Yes|No|0
Concrete Test Equipment|Type|||String|Yes|No|0
Connecting Devices|Type|||String|Yes|No|0
Cordless Tool Batteries/Chargers|Type|||String|Yes|No|0
Core Bits & Accessories|Type|||String|Yes|No|0
Core Drills & Stands|Type|||String|Yes|No|0
Cup Wheels|Type|||String|Yes|No|0
Cutoff Saws|Type|||String|Yes|No|0
Cut-off Wheels|Type|||String|Yes|No|0
Damond Blades|Type|||String|Yes|No|0
Demo Hammers|Type|||String|Yes|No|0
Die Grinders|Type|||String|Yes|No|0
Disc Grinders/Sanders|Type|||String|Yes|No|0
Door Hanging Templates|Type|||String|Yes|No|0
Drill Chuck & Chuck adaptors|Type|||String|Yes|No|0
Drill Drivers/Hammer Drills|Type|||String|Yes|No|0
Drill Extensions|Type|||String|Yes|No|0
Drill Sets|Type|||String|Yes|No|0
Extension Ladders|Type|||String|Yes|No|0
Fastening Tool Accessories|Type|||String|Yes|No|0
Filters/Cartridges|Type|||String|Yes|No|0
Finish Nailers|Type|||String|Yes|No|0
Fire Barrier Caulking|Type|||String|Yes|No|0
Fire Stop Duct Wrap|Type|||String|Yes|No|0
Fire Stop Silicones|Type|||String|Yes|No|0
Flashlights|Type|||String|Yes|No|0
Flat Saws|Type|||String|Yes|No|0
Floor Scrappers & Blades|Type|||String|Yes|No|0
Framing Nailers|Type|||String|Yes|No|0
General Purpose Adhesive|Type|||String|Yes|No|0
General Purpose Cleaner|Type|||String|Yes|No|0
Generator Accessories|Type|||String|Yes|No|0
Generators|Type|||String|Yes|No|0
Glass/Tile Bits|Type|||String|Yes|No|0
Glasses|Type|||String|Yes|No|0
Grinder Guards/Mounting parts|Type|||String|Yes|No|0
Grinding Wheels|Type|||String|Yes|No|0
Hack Saws|Type|||String|Yes|No|0
Hammer Handles|Type|||String|Yes|No|0
Hammers/Pullers|Type|||String|Yes|No|0
Hand Tool boxes|Type|||String|Yes|No|0
Heat Guns|Type|||String|Yes|No|0
Hex Keys/Torx|Type|||String|Yes|No|0
Hole Saws & Arbors|Type|||String|Yes|No|0
Impact Sockets and Adapters|Type|||String|Yes|No|0
Impacts|Type|||String|Yes|No|0
Insert Bits|Type|||String|Yes|No|0
Jig|Type|||String|Yes|No|0
Jig Saw Blades|Type|||String|Yes|No|0
Job Site Radios & Accessories|Type|||String|Yes|No|0
Jobsite|Type|||String|Yes|No|0
Knives|Type|||String|Yes|No|0
Ladder Accessories|Type|||String|Yes|No|0
Ladder/Lumber/Roof Racks|Type|||String|Yes|No|0
Lanyards & Ropes|Type|||String|Yes|No|0
Masonry Bits|Type|||String|Yes|No|0
Miter|Type|||String|Yes|No|0
Muffs|Type|||String|Yes|No|0
Nibblers & Shears|Type|||String|Yes|No|0
Nut Drivers|Type|||String|Yes|No|0
Nutsetters|Type|||String|Yes|No|0
Oscillating|Type|||String|Yes|No|0
Pipe and Tubing Cutter|Type|||String|Yes|No|0
Pipe Devices & Collars|Type|||String|Yes|No|0
Pliers|Type|||String|Yes|No|0
Plugs|Type|||String|Yes|No|0
Plumb Bobs|Type|||String|Yes|No|0
Point/Line Lasers|Type|||String|Yes|No|0
Power Bits|Type|||String|Yes|No|0
Power Drywall Cutters|Type|||String|Yes|No|0
Power Tools Repair Parts|Type|||String|Yes|No|0
Pump Jacks|Type|||String|Yes|No|0
PVC Cutters|Type|||String|Yes|No|0
Reciprocating|Type|||String|Yes|No|0
Reciprocating Saw Blades|Type|||String|Yes|No|0
Rescue Systems|Type|||String|Yes|No|0
Respirators|Type|||String|Yes|No|0
Roofer Kits|Type|||String|Yes|No|0
Rotary Hammer Bits|Type|||String|Yes|No|0
Rotary Hammer Steel|Type|||String|Yes|No|0
Rotary Hammers|Type|||String|Yes|No|0
Router & Rotary Tools|Type|||String|Yes|No|0
Router Bits|Type|||String|Yes|No|0
Router Bushings & Guides|Type|||String|Yes|No|0
Saw Accessories|Type|||String|Yes|No|0
Screw Guides & Bit Holders|Type|||String|Yes|No|0
Security Systems|Type|||String|Yes|No|0
Sets|Type|||String|Yes|No|0
Sheet Metal|Type|||String|Yes|No|0
Step Ladders|Type|||String|Yes|No|0
Stud Finders|Type|||String|Yes|No|0
Submersible/Utility/Sump Pumps|Type|||String|Yes|No|0
Table|Type|||String|Yes|No|0
Tape Measures|Type|||String|Yes|No|0
Tapes|Type|||String|Yes|No|0
Testing & Measurement Tools|Type|||String|Yes|No|0
Tile/Brick/Block saws|Type|||String|Yes|No|0
Tool & Bucket Bags|Type|||String|Yes|No|0
Transfer Tanks & Pumps|Type|||String|Yes|No|0
Trash & Centrifugal Pumps|Type|||String|Yes|No|0
Tripods|Type|||String|Yes|No|0
Truck Boxes|Type|||String|Yes|No|0
Vacuum/Blower/Ventilator Accessories|Type|||String|Yes|No|0
Van Organizers|Type|||String|Yes|No|0
Wet/Dry|Type|||String|Yes|No|0
Wheel Measures|Type|||String|Yes|No|0
Wire Wheels & Brushes|Type|||String|Yes|No|0
Wood Augers|Type|||String|Yes|No|0
Wood Brad Point & Multi-Spur Bits|Type|||String|Yes|No|0
Wood Saws|Type|||String|Yes|No|0
Wrecking Bars/Pullers|Type|||String|Yes|No|0
Testing & Measurement Tools|Type of Indication|||String|Yes|No|0
Abrasive Flap Discs|Usage|||Long|Yes|No|0
Abrasive Sanding Belts|Usage|||Long|Yes|No|0
Abrasive Sanding Discs|Usage|||Long|Yes|No|0
Abrasive Sanding Sheets|Usage|||Long|Yes|No|0
Adjustable Wrenches|Usage|||Long|Yes|No|0
Air Compressors|Usage|||Long|Yes|No|0
Auto Levels|Usage|||Long|Yes|No|0
Band Saw Blades|Usage|||Long|Yes|No|0
Band Saws|Usage|||Long|Yes|No|0
Cameras & Films|Usage|||Long|Yes|No|0
Chisels/Punches|Usage|||Long|Yes|No|0
Chop Saws|Usage|||Long|Yes|No|0
Circular|Usage|||Long|Yes|No|0
Circular Saw Blades|Usage|||Long|Yes|No|0
Collated Nails|Usage|||Long|Yes|No|0
Combination Ladders|Usage|||Long|Yes|No|0
Combo Kit|Usage|||Long|Yes|No|0
Compressor Oil|Usage|||Long|Yes|No|0
Concrete Test Equipment|Usage|||Long|Yes|No|0
Connecting Devices|Usage|||Long|Yes|No|0
Cordless Tool Batteries/Chargers|Usage|||Long|Yes|No|0
Core Bits & Accessories|Usage|||Long|Yes|No|0
Core Drills & Stands|Usage|||Long|Yes|No|0
Cup Wheels|Usage|||Long|Yes|No|0
Cutoff Saws|Usage|||Long|Yes|No|0
Cut-off Wheels|Usage|||Long|Yes|No|0
Damond Blades|Usage|||Long|Yes|No|0
Demo Hammers|Usage|||Long|Yes|No|0
Die Grinders|Usage|||Long|Yes|No|0
Disc Grinders/Sanders|Usage|||Long|Yes|No|0
Door Hanging Templates|Usage|||Long|Yes|No|0
Drill Chuck & Chuck adaptors|Usage|||Long|Yes|No|0
Drill Drivers/Hammer Drills|Usage|||Long|Yes|No|0
Drill Extensions|Usage|||Long|Yes|No|0
Drill Sets|Usage|||Long|Yes|No|0
Extension Ladders|Usage|||Long|Yes|No|0
Fastening Tool Accessories|Usage|||Long|Yes|No|0
Filters/Cartridges|Usage|||Long|Yes|No|0
Finish Nailers|Usage|||Long|Yes|No|0
Fire Barrier Caulking|Usage|||Long|Yes|No|0
Fire Stop Duct Wrap|Usage|||Long|Yes|No|0
Fire Stop Silicones|Usage|||Long|Yes|No|0
Flashlights|Usage|||Long|Yes|No|0
Flat Saws|Usage|||Long|Yes|No|0
Floor Scrappers & Blades|Usage|||Long|Yes|No|0
Framing Nailers|Usage|||Long|Yes|No|0
General Purpose Adhesive|Usage|||Long|Yes|No|0
General Purpose Cleaner|Usage|||Long|Yes|No|0
Generator Accessories|Usage|||Long|Yes|No|0
Generators|Usage|||Long|Yes|No|0
Glass/Tile Bits|Usage|||Long|Yes|No|0
Glasses|Usage|||Long|Yes|No|0
Grinder Guards/Mounting parts|Usage|||Long|Yes|No|0
Grinding Wheels|Usage|||Long|Yes|No|0
Hack Saws|Usage|||Long|Yes|No|0
Hammer Handles|Usage|||Long|Yes|No|0
Hammers/Pullers|Usage|||Long|Yes|No|0
Hand Tool boxes|Usage|||Long|Yes|No|0
Heat Guns|Usage|||Long|Yes|No|0
Hex Keys/Torx|Usage|||Long|Yes|No|0
Hole Saws & Arbors|Usage|||Long|Yes|No|0
Impact Sockets and Adapters|Usage|||Long|Yes|No|0
Impacts|Usage|||Long|Yes|No|0
Insert Bits|Usage|||Long|Yes|No|0
Jig|Usage|||Long|Yes|No|0
Jig Saw Blades|Usage|||Long|Yes|No|0
Job Site Radios & Accessories|Usage|||Long|Yes|No|0
Jobsite|Usage|||Long|Yes|No|0
Knives|Usage|||Long|Yes|No|0
Ladder Accessories|Usage|||Long|Yes|No|0
Ladder/Lumber/Roof Racks|Usage|||Long|Yes|No|0
Lanyards & Ropes|Usage|||Long|Yes|No|0
Masonry Bits|Usage|||Long|Yes|No|0
Miter|Usage|||Long|Yes|No|0
Muffs|Usage|||Long|Yes|No|0
Nibblers & Shears|Usage|||Long|Yes|No|0
Nut Drivers|Usage|||Long|Yes|No|0
Nutsetters|Usage|||Long|Yes|No|0
Oscillating|Usage|||Long|Yes|No|0
Pipe and Tubing Cutter|Usage|||Long|Yes|No|0
Pipe Devices & Collars|Usage|||Long|Yes|No|0
Pliers|Usage|||Long|Yes|No|0
Plugs|Usage|||Long|Yes|No|0
Plumb Bobs|Usage|||Long|Yes|No|0
Point/Line Lasers|Usage|||Long|Yes|No|0
Power Bits|Usage|||Long|Yes|No|0
Power Drywall Cutters|Usage|||Long|Yes|No|0
Power Tools Repair Parts|Usage|||Long|Yes|No|0
Pump Jacks|Usage|||Long|Yes|No|0
PVC Cutters|Usage|||Long|Yes|No|0
Reciprocating|Usage|||Long|Yes|No|0
Reciprocating Saw Blades|Usage|||Long|Yes|No|0
Rescue Systems|Usage|||Long|Yes|No|0
Respirators|Usage|||Long|Yes|No|0
Roofer Kits|Usage|||Long|Yes|No|0
Rotary Hammer Bits|Usage|||Long|Yes|No|0
Rotary Hammer Steel|Usage|||Long|Yes|No|0
Rotary Hammers|Usage|||Long|Yes|No|0
Router & Rotary Tools|Usage|||Long|Yes|No|0
Router Bits|Usage|||Long|Yes|No|0
Router Bushings & Guides|Usage|||Long|Yes|No|0
Saw Accessories|Usage|||Long|Yes|No|0
Screw Guides & Bit Holders|Usage|||Long|Yes|No|0
Security Systems|Usage|||Long|Yes|No|0
Sets|Usage|||Long|Yes|No|0
Sheet Metal|Usage|||Long|Yes|No|0
Step Ladders|Usage|||Long|Yes|No|0
Stud Finders|Usage|||Long|Yes|No|0
Submersible/Utility/Sump Pumps|Usage|||Long|Yes|No|0
Table|Usage|||Long|Yes|No|0
Tape Measures|Usage|||Long|Yes|No|0
Tapes|Usage|||Long|Yes|No|0
Testing & Measurement Tools|Usage|||Long|Yes|No|0
Tile/Brick/Block saws|Usage|||Long|Yes|No|0
Tool & Bucket Bags|Usage|||Long|Yes|No|0
Transfer Tanks & Pumps|Usage|||Long|Yes|No|0
Trash & Centrifugal Pumps|Usage|||Long|Yes|No|0
Tripods|Usage|||Long|Yes|No|0
Truck Boxes|Usage|||Long|Yes|No|0
Vacuum/Blower/Ventilator Accessories|Usage|||Long|Yes|No|0
Van Organizers|Usage|||Long|Yes|No|0
Wet/Dry|Usage|||Long|Yes|No|0
Wheel Measures|Usage|||Long|Yes|No|0
Wire Wheels & Brushes|Usage|||Long|Yes|No|0
Wood Augers|Usage|||Long|Yes|No|0
Wood Brad Point & Multi-Spur Bits|Usage|||Long|Yes|No|0
Wood Saws|Usage|||Long|Yes|No|0
Wrecking Bars/Pullers|Usage|||Long|Yes|No|0
Compressor Oil|Viscosity|||String|Yes|No|0
Fire Barrier Caulking|Viscosity|||String|Yes|No|0
Fire Stop Silicones|Viscosity|||String|Yes|No|0
General Purpose Adhesive|VOC||g/L|Numeric|Yes|No|0
General Purpose Cleaner|Voc||g/L|Numeric|Yes|No|0
Testing & Measurement Tools|Voltage Range||VAC/DC|Numeric|Yes|No|0
Air Compressors|Voltage Rating||V|String|Yes|No|0
Band Saws|Voltage Rating||V|String|Yes|No|0
Chop Saws|Voltage Rating||V|String|Yes|No|0
Circular|Voltage Rating||V|String|Yes|No|0
Circular Saw Blades|Voltage Rating||V|String|Yes|No|0
Combo Kit|Voltage Rating||V|String|Yes|No|0
Core Drills & Stands|Voltage Rating||V|String|Yes|No|0
Cutoff Saws|Voltage Rating||V|String|Yes|No|0
Demo Hammers|Voltage Rating||V|String|Yes|No|0
Die Grinders|Voltage Rating||V|String|Yes|No|0
Disc Grinders/Sanders|Voltage Rating||V|String|Yes|No|0
Drill Drivers/Hammer Drills|Voltage Rating||V|String|Yes|No|0
Flashlights|Voltage Rating||V|String|Yes|No|0
Generator Accessories|Voltage Rating||V|String|Yes|No|0
Generators|Voltage Rating||V|String|Yes|No|0
Heat Guns|Voltage Rating||V|String|Yes|No|0
Impacts|Voltage Rating||V|String|Yes|No|0
Jig|Voltage Rating||V|String|Yes|No|0
Job Site Radios & Accessories|Voltage Rating||V|String|Yes|No|0
Miter|Voltage Rating||V|String|Yes|No|0
Nibblers & Shears|Voltage Rating||V|String|Yes|No|0
Oscillating|Voltage Rating||V|String|Yes|No|0
Pipe and Tubing Cutter|Voltage Rating||V|String|Yes|No|0
Reciprocating|Voltage Rating||V|String|Yes|No|0
Rotary Hammers|Voltage Rating||V|String|Yes|No|0
Router & Rotary Tools|Voltage Rating||V|String|Yes|No|0
Saw Accessories|Voltage Rating||V|String|Yes|No|0
Submersible/Utility/Sump Pumps|Voltage Rating||V|String|Yes|No|0
Table|Voltage Rating||V|String|Yes|No|0
Testing & Measurement Tools|Voltage Rating||V|String|Yes|No|0
Tile/Brick/Block saws|Voltage Rating||V|String|Yes|No|0
Trash & Centrifugal Pumps|Voltage Rating||V|String|Yes|No|0
Wet/Dry|Voltage Rating||V|String|Yes|No|0
Flashlights|Wattage Rating||W|Numeric|Yes|No|0
Generator Accessories|Wattage Rating||W|Numeric|Yes|No|0
Generators|Wattage Rating||W|Numeric|Yes|No|0
Auto Levels|Wavelength|||String|Yes|No|0
Point/Line Lasers|Wavelength|||String|Yes|No|0
Vacuum/Blower/Ventilator Accessories|Wet Capacity|||String|Yes|No|0
Wet/Dry|Wet Capacity|||String|Yes|No|0
Wheel Measures|Wheel Circumference||ft|Numeric|Yes|No|0
Die Grinders|Wheel Diameter||in|Numeric|Yes|No|0
Disc Grinders/Sanders|Wheel Diameter||in|Numeric|Yes|No|0
Wheel Measures|Wheel Diameter||in|Numeric|Yes|No|0
Abrasive Sanding Belts|Width||in|Numeric|Yes|No|0
Abrasive Sanding Sheets|Width||in|Numeric|Yes|No|0
Band Saw Blades|Width||in|Numeric|Yes|No|0
Circular Saw Blades|Width||in|Numeric|Yes|No|0
Connecting Devices|Width||in|Numeric|Yes|No|0
Core Drills & Stands|Width||in|Numeric|Yes|No|0
Drill Chuck & Chuck adaptors|Width||in|Numeric|Yes|No|0
Filters/Cartridges|Width||in|Numeric|Yes|No|0
Fire Stop Duct Wrap|Width||in|Numeric|Yes|No|0
Generators|Width||in|Numeric|Yes|No|0
Hand Tool boxes|Width||in|Numeric|Yes|No|0
Jig Saw Blades|Width||in|Numeric|Yes|No|0
Jobsite|Width||in|Numeric|Yes|No|0
Knives|Width||in|Numeric|Yes|No|0
Ladder/Lumber/Roof Racks|Width||in|Numeric|Yes|No|0
Lanyards & Ropes|Width||in|Numeric|Yes|No|0
Miter|Width||in|Numeric|Yes|No|0
Pipe Devices & Collars|Width||in|Numeric|Yes|No|0
Reciprocating Saw Blades|Width||in|Numeric|Yes|No|0
Rotary Hammer Steel|Width||in|Numeric|Yes|No|0
Saw Accessories|Width||in|Numeric|Yes|No|0
Security Systems|Width||in|Numeric|Yes|No|0
Tape Measures|Width||in|Numeric|Yes|No|0
Tapes|Width||in|Numeric|Yes|No|0
Tile/Brick/Block saws|Width||in|Numeric|Yes|No|0
Tool & Bucket Bags|Width||in|Numeric|Yes|No|0
Transfer Tanks & Pumps|Width||in|Numeric|Yes|No|0
Truck Boxes|Width||in|Numeric|Yes|No|0
Van Organizers|Width||in|Numeric|Yes|No|0
Wrecking Bars/Pullers|Width||in|Numeric|Yes|No|0
Collated Nails|Wire Gauge||ga|Numeric|Yes|No|0
Wire Wheels & Brushes|Wire Material|||String|Yes|No|0
Generator Accessories|Wire Size||in|Numeric|Yes|No|0
Wire Wheels & Brushes|Wire Size||in|Numeric|Yes|No|0
Connecting Devices|Work Load Limit||lb|Numeric|Yes|No|0
Miter|Work Surface|||String|Yes|No|0
Saw Accessories|Work Surface|||String|Yes|No|0
Combination Ladders|Working Length||ft|Numeric|Yes|No|0
Lanyards & Ropes|Working Load|||String|Yes|No|0
Roofer Kits|Working Load|||String|Yes|No|0
Chop Saws|Working Pressure|||String|Yes|No|0
WHITE CAP MST|HazMat Flag|Yes||Value Set|Yes|No|0
WHITE CAP MST|HazMat Flag|No||Value Set|Yes|No|0
WHITE CAP MST|Quality Rating|Good||Value Set|No|No|0
WHITE CAP MST|Quality Rating|Better||Value Set|No|No|0
WHITE CAP MST|Quality Rating|Best||Value Set|No|No|0
WHITE CAP MST|Bulky Item|Yes||Value Set|Yes|No|0
WHITE CAP MST|Bulky Item|No||Value Set|Yes|No|0
WHITE CAP MST|Tax Code|||String|Yes|No|0
WHITE CAP MST|Vendor Number|||String|No|No|0
WHITE CAP MST|Vendor Name|||String|No|No|0
WHITE CAP MST|Manufacturer Part Number|||String|Yes|No|0
WHITE CAP MST|Brand|||String|Yes|No|0
WHITE CAP MST|Product Line|||String|Yes|No|0
WHITE CAP MST|Web Short Description|||String|Yes|No|0
WHITE CAP MST|Web Long Description|||Long|Yes|No|0
WHITE CAP MST|alternateimage fullsize 1|||String|Yes|No|0
WHITE CAP MST|alternateimage thumbnail 1|||String|Yes|No|0
WHITE CAP MST|alternateimage fullsize 2|||String|Yes|No|0
WHITE CAP MST|alternateimage thumbnail 2|||String|Yes|No|0
WHITE CAP MST|alternateimage fullsize 3|||String|Yes|No|0
WHITE CAP MST|alternateimage thumbnail 3|||String|Yes|No|0
WHITE CAP MST|alternateimage fullsize 4|||String|Yes|No|0
WHITE CAP MST|alternateimage thumbnail 4|||String|Yes|No|0
WHITE CAP MST|alternateimage fullsize 5|||String|Yes|No|0
WHITE CAP MST|alternateimage thumbnail 5|||String|Yes|No|0
WHITE CAP MST|Features&Benefits|||Long|Yes|Yes|0
