--Report Name            : Contract Pricing Report - External
--Import Instructions    : Run this file in XXEIS user from SQL*Plus or any tool like Toad, SQL Navigator. 
prompt Creating View Data for Contract Pricing Report - External
set scan off define off
DECLARE
BEGIN 
--Inserting View EIS_XXWC_CONT_MODI_PRICING_V1
xxeis.eis_rs_ins.v( 'EIS_XXWC_CONT_MODI_PRICING_V1',660,'','','','','XXEIS_RS_ADMIN','XXEIS','Eis Xxwc Cont Modi Pricing V','EXCMPV','','');
--Delete View Columns for EIS_XXWC_CONT_MODI_PRICING_V1
xxeis.eis_rs_utility.delete_view_rows('EIS_XXWC_CONT_MODI_PRICING_V1',660,FALSE);
--Inserting View Columns for EIS_XXWC_CONT_MODI_PRICING_V1
xxeis.eis_rs_ins.vc( 'EIS_XXWC_CONT_MODI_PRICING_V1','CURRENT_LOCATION_COST',660,'Current Location Cost','CURRENT_LOCATION_COST','','','','XXEIS_RS_ADMIN','NUMBER','','','Current Location Cost','','','');
xxeis.eis_rs_ins.vc( 'EIS_XXWC_CONT_MODI_PRICING_V1','ACTUAL_GROSS_MARGIN',660,'Actual Gross Margin','ACTUAL_GROSS_MARGIN','','','','XXEIS_RS_ADMIN','NUMBER','','','Actual Gross Margin','','','');
xxeis.eis_rs_ins.vc( 'EIS_XXWC_CONT_MODI_PRICING_V1','ACTUAL_SALES',660,'Actual Sales','ACTUAL_SALES','','','','XXEIS_RS_ADMIN','NUMBER','','','Actual Sales','','','');
xxeis.eis_rs_ins.vc( 'EIS_XXWC_CONT_MODI_PRICING_V1','UNITS_SOLD',660,'Units Sold','UNITS_SOLD','','','','XXEIS_RS_ADMIN','NUMBER','','','Units Sold','','','');
xxeis.eis_rs_ins.vc( 'EIS_XXWC_CONT_MODI_PRICING_V1','CONTRACT_PRICE',660,'Contract Price','CONTRACT_PRICE','','','','XXEIS_RS_ADMIN','NUMBER','','','Contract Price','','','');
xxeis.eis_rs_ins.vc( 'EIS_XXWC_CONT_MODI_PRICING_V1','APP',660,'App','APP','','','','XXEIS_RS_ADMIN','VARCHAR2','','','App','','','');
xxeis.eis_rs_ins.vc( 'EIS_XXWC_CONT_MODI_PRICING_V1','LIST_PRICE',660,'List Price','LIST_PRICE','','','','XXEIS_RS_ADMIN','NUMBER','','','List Price','','','');
xxeis.eis_rs_ins.vc( 'EIS_XXWC_CONT_MODI_PRICING_V1','GM',660,'Gm','GM','','','','XXEIS_RS_ADMIN','NUMBER','','','Gm','','','');
xxeis.eis_rs_ins.vc( 'EIS_XXWC_CONT_MODI_PRICING_V1','CAT_CLASS',660,'Cat Class','CAT_CLASS','','','','XXEIS_RS_ADMIN','VARCHAR2','','','Cat Class','','','');
xxeis.eis_rs_ins.vc( 'EIS_XXWC_CONT_MODI_PRICING_V1','DESCRIPTION',660,'Description','DESCRIPTION','','','','XXEIS_RS_ADMIN','VARCHAR2','','','Description','','','');
xxeis.eis_rs_ins.vc( 'EIS_XXWC_CONT_MODI_PRICING_V1','PRODUCT',660,'Product','PRODUCT','','','','XXEIS_RS_ADMIN','VARCHAR2','','','Product','','','');
xxeis.eis_rs_ins.vc( 'EIS_XXWC_CONT_MODI_PRICING_V1','CUSTOMER_NAME',660,'Customer Name','CUSTOMER_NAME','','','','XXEIS_RS_ADMIN','VARCHAR2','','','Customer Name','','','');
xxeis.eis_rs_ins.vc( 'EIS_XXWC_CONT_MODI_PRICING_V1','MODIFIER_NAME',660,'Modifier Name','MODIFIER_NAME','','','','XXEIS_RS_ADMIN','VARCHAR2','','','Modifier Name','','','');
xxeis.eis_rs_ins.vc( 'EIS_XXWC_CONT_MODI_PRICING_V1','VALUE1',660,'Value1','VALUE1','','','','XXEIS_RS_ADMIN','NUMBER','','','Value1','','','');
xxeis.eis_rs_ins.vc( 'EIS_XXWC_CONT_MODI_PRICING_V1','CAT',660,'Cat','CAT','','','','XXEIS_RS_ADMIN','VARCHAR2','','','Cat','','','');
xxeis.eis_rs_ins.vc( 'EIS_XXWC_CONT_MODI_PRICING_V1','CAT_CLASS_DESC',660,'Cat Class Desc','CAT_CLASS_DESC','','','','XXEIS_RS_ADMIN','VARCHAR2','','','Cat Class Desc','','','');
xxeis.eis_rs_ins.vc( 'EIS_XXWC_CONT_MODI_PRICING_V1','CAT_DESC',660,'Cat Desc','CAT_DESC','','','','XXEIS_RS_ADMIN','VARCHAR2','','','Cat Desc','','','');
xxeis.eis_rs_ins.vc( 'EIS_XXWC_CONT_MODI_PRICING_V1','CONTRACT_TYPE',660,'Contract Type','CONTRACT_TYPE','','','','XXEIS_RS_ADMIN','VARCHAR2','','','Contract Type','','','');
xxeis.eis_rs_ins.vc( 'EIS_XXWC_CONT_MODI_PRICING_V1','SALESREP',660,'Salesrep','SALESREP','','','','XXEIS_RS_ADMIN','VARCHAR2','','','Salesrep','','','');
xxeis.eis_rs_ins.vc( 'EIS_XXWC_CONT_MODI_PRICING_V1','ACCOUNT_NUMBER',660,'Account Number','ACCOUNT_NUMBER','','','','XXEIS_RS_ADMIN','VARCHAR2','','','Account Number','','','');
xxeis.eis_rs_ins.vc( 'EIS_XXWC_CONT_MODI_PRICING_V1','LOCATION',660,'Location','LOCATION','','','','XXEIS_RS_ADMIN','VARCHAR2','','','Location','','','');
xxeis.eis_rs_ins.vc( 'EIS_XXWC_CONT_MODI_PRICING_V1','PARTY_SITE_NUMBER',660,'Party Site Number','PARTY_SITE_NUMBER','','','','XXEIS_RS_ADMIN','VARCHAR2','','','Party Site Number','','','');
xxeis.eis_rs_ins.vc( 'EIS_XXWC_CONT_MODI_PRICING_V1','PRICE_TYPE',660,'Price Type','PRICE_TYPE','','','','XXEIS_RS_ADMIN','VARCHAR2','','','Price Type','','','');
xxeis.eis_rs_ins.vc( 'EIS_XXWC_CONT_MODI_PRICING_V1','VERSION_NO',660,'Version No','VERSION_NO','','','','XXEIS_RS_ADMIN','VARCHAR2','','','Version No','','','');
xxeis.eis_rs_ins.vc( 'EIS_XXWC_CONT_MODI_PRICING_V1','NEW_PRICE_OR_NEW_GM_DISC',660,'New Price Or New Gm Disc','NEW_PRICE_OR_NEW_GM_DISC','','','','XXEIS_RS_ADMIN','NUMBER','','','New Price Or New Gm Disc','','','');
xxeis.eis_rs_ins.vc( 'EIS_XXWC_CONT_MODI_PRICING_V1','QUALIFIER_ATTRIBUTE',660,'Qualifier Attribute','QUALIFIER_ATTRIBUTE','','','','XXEIS_RS_ADMIN','VARCHAR2','','','Qualifier Attribute','','','');
xxeis.eis_rs_ins.vc( 'EIS_XXWC_CONT_MODI_PRICING_V1','TYPE',660,'Type','TYPE','','','','XXEIS_RS_ADMIN','VARCHAR2','','','Type','','','');
xxeis.eis_rs_ins.vc( 'EIS_XXWC_CONT_MODI_PRICING_V1','UNIT_COST',660,'Unit Cost','UNIT_COST','','','','XXEIS_RS_ADMIN','NUMBER','','','Unit Cost','','','');
xxeis.eis_rs_ins.vc( 'EIS_XXWC_CONT_MODI_PRICING_V1','PROCESS_ID',660,'Process Id','PROCESS_ID','','','','XXEIS_RS_ADMIN','NUMBER','','','Process Id','','','');
xxeis.eis_rs_ins.vc( 'EIS_XXWC_CONT_MODI_PRICING_V1','ARITHMETIC_OPERATOR',660,'Arithmetic Operator','ARITHMETIC_OPERATOR','','','','XXEIS_RS_ADMIN','VARCHAR2','','','Arithmetic Operator','','','');
xxeis.eis_rs_ins.vc( 'EIS_XXWC_CONT_MODI_PRICING_V1','CATEGORY_ID',660,'Category Id','CATEGORY_ID','','','','XXEIS_RS_ADMIN','NUMBER','','','Category Id','','','');
xxeis.eis_rs_ins.vc( 'EIS_XXWC_CONT_MODI_PRICING_V1','CREATION_DATE',660,'Creation Date','CREATION_DATE','','','','XXEIS_RS_ADMIN','VARCHAR2','','','Creation Date','','','');
xxeis.eis_rs_ins.vc( 'EIS_XXWC_CONT_MODI_PRICING_V1','CUST_ACCOUNT_ID',660,'Cust Account Id','CUST_ACCOUNT_ID','','','','XXEIS_RS_ADMIN','NUMBER','','','Cust Account Id','','','');
xxeis.eis_rs_ins.vc( 'EIS_XXWC_CONT_MODI_PRICING_V1','FORMULA_NAME',660,'Formula Name','FORMULA_NAME','','','','XXEIS_RS_ADMIN','VARCHAR2','','','Formula Name','','','');
xxeis.eis_rs_ins.vc( 'EIS_XXWC_CONT_MODI_PRICING_V1','INVENTORY_ITEM_ID',660,'Inventory Item Id','INVENTORY_ITEM_ID','','','','XXEIS_RS_ADMIN','NUMBER','','','Inventory Item Id','','','');
xxeis.eis_rs_ins.vc( 'EIS_XXWC_CONT_MODI_PRICING_V1','LIST_HEADER_ID',660,'List Header Id','LIST_HEADER_ID','','','','XXEIS_RS_ADMIN','NUMBER','','','List Header Id','','','');
xxeis.eis_rs_ins.vc( 'EIS_XXWC_CONT_MODI_PRICING_V1','OPERAND',660,'Operand','OPERAND','','','','XXEIS_RS_ADMIN','NUMBER','','','Operand','','','');
xxeis.eis_rs_ins.vc( 'EIS_XXWC_CONT_MODI_PRICING_V1','PRICE_BY_CAT',660,'Price By Cat','PRICE_BY_CAT','','','','XXEIS_RS_ADMIN','VARCHAR2','','','Price By Cat','','','');
xxeis.eis_rs_ins.vc( 'EIS_XXWC_CONT_MODI_PRICING_V1','PRODUCT_ATTRIBUTE_TYPE',660,'Product Attribute Type','PRODUCT_ATTRIBUTE_TYPE','','','','XXEIS_RS_ADMIN','VARCHAR2','','','Product Attribute Type','','','');
xxeis.eis_rs_ins.vc( 'EIS_XXWC_CONT_MODI_PRICING_V1','TRANSACTION_CODE',660,'Transaction Code','TRANSACTION_CODE','','','','XXEIS_RS_ADMIN','VARCHAR2','','','Transaction Code','','','');
xxeis.eis_rs_ins.vc( 'EIS_XXWC_CONT_MODI_PRICING_V1','COMMON_OUTPUT_ID',660,'Common Output Id','COMMON_OUTPUT_ID','','','','XXEIS_RS_ADMIN','NUMBER','','','Common Output Id','','','');
xxeis.eis_rs_ins.vc( 'EIS_XXWC_CONT_MODI_PRICING_V1','PERSON_ID',660,'Person Id','PERSON_ID','','','','XXEIS_RS_ADMIN','NUMBER','','','Person Id','','','');
--Inserting View Components for EIS_XXWC_CONT_MODI_PRICING_V1
--Inserting View Component Joins for EIS_XXWC_CONT_MODI_PRICING_V1
END;
/
set scan on define on
prompt Creating Report LOV Data for Contract Pricing Report - External
set scan off define off
DECLARE
BEGIN 
--Inserting Report LOVs - Contract Pricing Report - External
xxeis.eis_rs_ins.lov( 660,'select nvl( party.party_name,CUST_ACCT.account_name) customer_name,CUST_ACCT.ACCOUNT_NUMBER
from  HZ_PARTIES PARTY, HZ_CUST_ACCOUNTS CUST_ACCT where CUST_ACCT.PARTY_ID = PARTY.PARTY_ID AND  PARTY.status=''A''
','','OM CUSTOMER NAME','This gives the Customer Name','XXEIS_RS_ADMIN',NULL,'N','','');
xxeis.eis_rs_ins.lov( 660,'select  cust_acct.account_number Customer_Number,cust_acct.account_name customer_name,party.party_name
from  HZ_PARTIES PARTY, HZ_CUST_ACCOUNTS CUST_ACCT
 where CUST_ACCT.PARTY_ID = PARTY.PARTY_ID','','OM CUSTOMER NUMBER','This gives the Customer Number','XXEIS_RS_ADMIN',NULL,'N','','');
xxeis.eis_rs_ins.lov( 660,'select distinct organization_code org_code,organization_name name,organization_id from org_organization_definitions','','Organization Lov','','ANONYMOUS',NULL,'N','','');
xxeis.eis_rs_ins.lov( 660,'SELECT ''Include'' Inc_Excl FROM dual
union 
SELECT ''Exclude'' Inc_Excl FROM dual
','','Include_Exclude Lov','','ANONYMOUS',NULL,'N','','');
xxeis.eis_rs_ins.lov( 660,'SELECT ''Include'' Inc_Excl FROM dual
union 
SELECT ''Exclude'' Inc_Excl FROM dual
','','Include_Exclude Lov','','ANONYMOUS',NULL,'N','','');
xxeis.eis_rs_ins.lov( 660,'SELECT ''Include'' Inc_Excl FROM dual
union 
SELECT ''Exclude'' Inc_Excl FROM dual
','','Include_Exclude Lov','','ANONYMOUS',NULL,'N','','');
xxeis.eis_rs_ins.lov( 660,'select distinct jrse.source_name 
from  jtf_rs_salesreps jrs ,
  jtf_rs_resource_extns jrse
 where  jrs.resource_id                    = jrse.resource_id','','District Manager Lov','','ANONYMOUS',NULL,'N','','');
xxeis.eis_rs_ins.lov( 660,'select distinct jrse.source_name SalesRep
from  jtf_rs_salesreps jrs ,
 jtf_rs_resource_extns jrse
 where jrs.resource_id  = jrse.resource_id','','XXWC Regional Manager Lov','','ANONYMOUS',NULL,'N','','');
xxeis.eis_rs_ins.lov( 660,'select distinct jrse.source_name  from  
jtf_rs_salesreps jrs,
jtf_rs_resource_extns jrse 
where    jrs.resource_id                    = jrse.resource_id','','XXWC Sales Manager Lov','','ANONYMOUS',NULL,'N','','');
xxeis.eis_rs_ins.lov( 660,'SELECT NAME  MODIFIER_NAME , DESCRIPTION MODIFIER_DESCRIPTION 
  FROM QP_LIST_HEADERS QH
 WHERE QH.attribute10   = ''Contract Pricing''','','XXWC CSP Modifer Name','','ANONYMOUS',NULL,'N','','');
END;
/
set scan on define on
prompt Creating Report Data for Contract Pricing Report - External
set scan off define off
DECLARE
BEGIN 
--Deleting Report data - Contract Pricing Report - External
xxeis.eis_rs_utility.delete_report_rows( 'Contract Pricing Report - External' );
--Inserting Report - Contract Pricing Report - External
xxeis.eis_rs_ins.r( 660,'Contract Pricing Report - External','','','','','','XXEIS_RS_ADMIN','EIS_XXWC_CONT_MODI_PRICING_V1','Y','','','XXEIS_RS_ADMIN','','N','White Cap Reports','','CSV,Pivot Excel,EXCEL,','N');
--Inserting Report Columns - Contract Pricing Report - External
xxeis.eis_rs_ins.rc( 'Contract Pricing Report - External',660,'ACTUAL_SALES','ACTUAL SALES','Actual Sales','','~T~D~2','default','','20','N','','','','','','','','XXEIS_RS_ADMIN','N','N','','EIS_XXWC_CONT_MODI_PRICING_V1','','');
xxeis.eis_rs_ins.rc( 'Contract Pricing Report - External',660,'PRODUCT','ITEM','Product','','','default','','14','N','','','','','','','','XXEIS_RS_ADMIN','N','N','','EIS_XXWC_CONT_MODI_PRICING_V1','','');
xxeis.eis_rs_ins.rc( 'Contract Pricing Report - External',660,'UNITS_SOLD','UNITS SOLD','Units Sold','','~T~D~2','default','','19','N','','','','','','','','XXEIS_RS_ADMIN','N','N','','EIS_XXWC_CONT_MODI_PRICING_V1','','');
xxeis.eis_rs_ins.rc( 'Contract Pricing Report - External',660,'VALUE1','VALUE','Value1','','~T~D~2','default','','17','N','','','','','','','','XXEIS_RS_ADMIN','N','N','','EIS_XXWC_CONT_MODI_PRICING_V1','','');
xxeis.eis_rs_ins.rc( 'Contract Pricing Report - External',660,'APP','MODIFIER TYPE','App','','','default','','16','N','','','','','','','','XXEIS_RS_ADMIN','N','N','','EIS_XXWC_CONT_MODI_PRICING_V1','','');
xxeis.eis_rs_ins.rc( 'Contract Pricing Report - External',660,'CAT_CLASS','CAT CLASS','Cat Class','','','default','','12','N','','','','','','','','XXEIS_RS_ADMIN','N','N','','EIS_XXWC_CONT_MODI_PRICING_V1','','');
xxeis.eis_rs_ins.rc( 'Contract Pricing Report - External',660,'CONTRACT_PRICE','CONTRACT SELLING PRICE','Contract Price','','~T~D~2','default','','18','N','','','','','','','','XXEIS_RS_ADMIN','N','N','','EIS_XXWC_CONT_MODI_PRICING_V1','','');
xxeis.eis_rs_ins.rc( 'Contract Pricing Report - External',660,'CUSTOMER_NAME','CUSTOMER NAME','Customer Name','','','default','','1','N','','','','','','','','XXEIS_RS_ADMIN','N','N','','EIS_XXWC_CONT_MODI_PRICING_V1','','');
xxeis.eis_rs_ins.rc( 'Contract Pricing Report - External',660,'DESCRIPTION','ITEM DESCRIPTION','Description','','','default','','15','N','','','','','','','','XXEIS_RS_ADMIN','N','N','','EIS_XXWC_CONT_MODI_PRICING_V1','','');
xxeis.eis_rs_ins.rc( 'Contract Pricing Report - External',660,'MODIFIER_NAME','MODIFIER NAME','Modifier Name','','','default','','7','N','','','','','','','','XXEIS_RS_ADMIN','N','N','','EIS_XXWC_CONT_MODI_PRICING_V1','','');
xxeis.eis_rs_ins.rc( 'Contract Pricing Report - External',660,'CAT','CAT','Cat','','','default','','10','N','','','','','','','','XXEIS_RS_ADMIN','N','N','','EIS_XXWC_CONT_MODI_PRICING_V1','','');
xxeis.eis_rs_ins.rc( 'Contract Pricing Report - External',660,'CAT_CLASS_DESC','CAT CLASS DESCRIPTION','Cat Class Desc','','','default','','13','N','','','','','','','','XXEIS_RS_ADMIN','N','N','','EIS_XXWC_CONT_MODI_PRICING_V1','','');
xxeis.eis_rs_ins.rc( 'Contract Pricing Report - External',660,'CAT_DESC','CATEGORY DESCRIPTION','Cat Desc','','','default','','11','N','','','','','','','','XXEIS_RS_ADMIN','N','N','','EIS_XXWC_CONT_MODI_PRICING_V1','','');
xxeis.eis_rs_ins.rc( 'Contract Pricing Report - External',660,'CONTRACT_TYPE','AGREEMENT TYPE','Contract Type','','','default','','9','N','','','','','','','','XXEIS_RS_ADMIN','N','N','','EIS_XXWC_CONT_MODI_PRICING_V1','','');
xxeis.eis_rs_ins.rc( 'Contract Pricing Report - External',660,'SALESREP','SALESPERSON NAME','Salesrep','','','default','','8','N','','','','','','','','XXEIS_RS_ADMIN','N','N','','EIS_XXWC_CONT_MODI_PRICING_V1','','');
xxeis.eis_rs_ins.rc( 'Contract Pricing Report - External',660,'ACCOUNT_NUMBER','MASTER ACCOUNT NUMBER','Account Number','','','default','','2','N','','','','','','','','XXEIS_RS_ADMIN','N','N','','EIS_XXWC_CONT_MODI_PRICING_V1','','');
xxeis.eis_rs_ins.rc( 'Contract Pricing Report - External',660,'LOCATION','LOCATION NAME','Location','','','default','','6','N','','','','','','','','XXEIS_RS_ADMIN','N','N','','EIS_XXWC_CONT_MODI_PRICING_V1','','');
xxeis.eis_rs_ins.rc( 'Contract Pricing Report - External',660,'PARTY_SITE_NUMBER','SITE NUMBER','Party Site Number','','','default','','5','N','','','','','','','','XXEIS_RS_ADMIN','N','N','','EIS_XXWC_CONT_MODI_PRICING_V1','','');
xxeis.eis_rs_ins.rc( 'Contract Pricing Report - External',660,'PRICE_TYPE','PRICE TYPE','Price Type','','','default','','4','N','','','','','','','','XXEIS_RS_ADMIN','N','N','','EIS_XXWC_CONT_MODI_PRICING_V1','','');
xxeis.eis_rs_ins.rc( 'Contract Pricing Report - External',660,'VERSION_NO','AGREEMENT NUMBER','Version No','','','default','','3','N','','','','','','','','XXEIS_RS_ADMIN','N','N','','EIS_XXWC_CONT_MODI_PRICING_V1','','');
--Inserting Report Parameters - Contract Pricing Report - External
xxeis.eis_rs_ins.rp( 'Contract Pricing Report - External',660,'Customer Name','Customer Name','','IN','OM CUSTOMER NAME','','VARCHAR2','N','Y','10','','N','CONSTANT','XXEIS_RS_ADMIN','Y','N','','','');
xxeis.eis_rs_ins.rp( 'Contract Pricing Report - External',660,'Customer Number','Customer Number','','IN','OM CUSTOMER NUMBER','','VARCHAR2','N','Y','11','','N','CONSTANT','XXEIS_RS_ADMIN','Y','N','','','');
xxeis.eis_rs_ins.rp( 'Contract Pricing Report - External',660,'Start Date','Start Date','','IN','','','DATE','Y','Y','1','','N','CONSTANT','XXEIS_RS_ADMIN','Y','N','','','');
xxeis.eis_rs_ins.rp( 'Contract Pricing Report - External',660,'End Date','End Date','','IN','','','DATE','Y','Y','2','','N','CONSTANT','XXEIS_RS_ADMIN','Y','N','','','');
xxeis.eis_rs_ins.rp( 'Contract Pricing Report - External',660,'Cat/Class Priced Lines','Category Priced Items','','IN','Include_Exclude Lov','','VARCHAR2','Y','Y','4','','N','CONSTANT','XXEIS_RS_ADMIN','Y','N','','','');
xxeis.eis_rs_ins.rp( 'Contract Pricing Report - External',660,'RVP','RVP','','IN','XXWC Regional Manager Lov','','VARCHAR2','N','Y','5','','N','CONSTANT','XXEIS_RS_ADMIN','Y','N','','','');
xxeis.eis_rs_ins.rp( 'Contract Pricing Report - External',660,'DM','DM','','IN','District Manager Lov','','VARCHAR2','N','Y','6','','N','CONSTANT','XXEIS_RS_ADMIN','Y','N','','','');
xxeis.eis_rs_ins.rp( 'Contract Pricing Report - External',660,'SalesPerson','SalesPerson','','IN','XXWC Sales Manager Lov','','VARCHAR2','N','Y','7','','N','CONSTANT','XXEIS_RS_ADMIN','Y','N','','','');
xxeis.eis_rs_ins.rp( 'Contract Pricing Report - External',660,'Master Accounts','Master Accounts','','IN','Include_Exclude Lov','','VARCHAR2','Y','Y','8','','N','CONSTANT','XXEIS_RS_ADMIN','Y','N','','','');
xxeis.eis_rs_ins.rp( 'Contract Pricing Report - External',660,'Job Accounts','Job Accounts','','IN','Include_Exclude Lov','','VARCHAR2','Y','Y','9','','N','CONSTANT','XXEIS_RS_ADMIN','Y','N','','','');
xxeis.eis_rs_ins.rp( 'Contract Pricing Report - External',660,'Current Gross Margin Cost Loc','Current Gross Margin Cost Loc','','IN','Organization Lov','','VARCHAR2','Y','Y','3','','N','CONSTANT','XXEIS_RS_ADMIN','Y','N','','','');
xxeis.eis_rs_ins.rp( 'Contract Pricing Report - External',660,'Modifier Name','Modifier Name','','IN','XXWC CSP Modifer Name','','VARCHAR2','N','Y','12','','N','CONSTANT','XXEIS_RS_ADMIN','Y','N','','','');
--Inserting Report Conditions - Contract Pricing Report - External
xxeis.eis_rs_ins.rcn( 'Contract Pricing Report - External',660,'PROCESS_ID','IN',':SYSTEM.PROCESS_ID','','','Y','1','N','XXEIS_RS_ADMIN');
--Inserting Report Sorts - Contract Pricing Report - External
xxeis.eis_rs_ins.rs( 'Contract Pricing Report - External',660,'CUSTOMER_NAME','ASC','XXEIS_RS_ADMIN','1','');
xxeis.eis_rs_ins.rs( 'Contract Pricing Report - External',660,'MODIFIER_NAME','ASC','XXEIS_RS_ADMIN','2','');
--Inserting Report Triggers - Contract Pricing Report - External
xxeis.eis_rs_ins.rt( 'Contract Pricing Report - External',660,'begin
xxeis.EIS_RS_XXWC_COM_UTIL_PKG.set_date_from(:Start Date);
xxeis.EIS_RS_XXWC_COM_UTIL_PKG.set_date_to(:End Date);
xxeis.EIS_RS_XXWC_COM_UTIL_PKG.set_cost_location(:Current Gross Margin Cost Loc);
xxeis.EIS_OM_XXWC_CONT_PRIC_PKG.CONTRACT_PRICING_MODIFIER  
                                    (
                                      P_PROCESS_ID           =>:SYSTEM.PROCESS_ID,
                                      P_START_DATE            =>:Start Date,
                                      P_END_DATE                =>:End Date,
                                      P_CatClass                   => NULL,
                                      P_CAT_PRICED_ITEMS  =>:Cat/Class Priced Lines,
                                      P_RVP                          =>:RVP,
                                      P_DM                           =>:DM,
                                      P_SALESPERSON           =>:SalesPerson,
                                      P_MASTER_ACCOUNT    =>:Master Accounts,
                                      P_JOB_ACCOUNT           =>:Job Accounts,
                                      P_CUSTOMER_NAME      => :Customer Name,
                                      P_CUSTOMER_NUMBER => :Customer Number,
                                      P_MODIFIER_NAME      => :Modifier Name
                                   );
end;','B','Y','XXEIS_RS_ADMIN');
--Inserting Report Templates - Contract Pricing Report - External
--Inserting Report Portals - Contract Pricing Report - External
--Inserting Report Dashboards - Contract Pricing Report - External
--Inserting Report Security - Contract Pricing Report - External
xxeis.eis_rs_ins.rsec( 'Contract Pricing Report - External','660','','51044',660,'XXEIS_RS_ADMIN','','');
xxeis.eis_rs_ins.rsec( 'Contract Pricing Report - External','660','','51045',660,'XXEIS_RS_ADMIN','','');
xxeis.eis_rs_ins.rsec( 'Contract Pricing Report - External','660','','50901',660,'XXEIS_RS_ADMIN','','');
xxeis.eis_rs_ins.rsec( 'Contract Pricing Report - External','660','','51025',660,'XXEIS_RS_ADMIN','','');
xxeis.eis_rs_ins.rsec( 'Contract Pricing Report - External','661','','50891',660,'XXEIS_RS_ADMIN','','');
xxeis.eis_rs_ins.rsec( 'Contract Pricing Report - External','660','','50886',660,'XXEIS_RS_ADMIN','','');
xxeis.eis_rs_ins.rsec( 'Contract Pricing Report - External','660','','50859',660,'XXEIS_RS_ADMIN','','');
xxeis.eis_rs_ins.rsec( 'Contract Pricing Report - External','660','','50858',660,'XXEIS_RS_ADMIN','','');
xxeis.eis_rs_ins.rsec( 'Contract Pricing Report - External','660','','50857',660,'XXEIS_RS_ADMIN','','');
xxeis.eis_rs_ins.rsec( 'Contract Pricing Report - External','660','','50860',660,'XXEIS_RS_ADMIN','','');
xxeis.eis_rs_ins.rsec( 'Contract Pricing Report - External','','PP018915','',660,'XXEIS_RS_ADMIN','','');
xxeis.eis_rs_ins.rsec( 'Contract Pricing Report - External','20005','','50900',660,'XXEIS_RS_ADMIN','','');
--Inserting Report Pivots - Contract Pricing Report - External
END;
/
set scan on define on
